root://eosatlas//eos//atlas/atlascerngroupdisk/det-slhc/SCOPING/group.det-slhc.mc12_14TeV.147807.PowhegPythia8_AU2CT10_Zmumu.recon.ESD.e1564_s1762_s1777_r6030.v2.trkD3PD_EXT0.29486363/group.det-slhc.5557666.EXT0._000001.D3PD.root
root://eosatlas//eos//atlas/atlascerngroupdisk/det-slhc/SCOPING/group.det-slhc.mc12_14TeV.147807.PowhegPythia8_AU2CT10_Zmumu.recon.ESD.e1564_s1762_s1777_r6030.v2.trkD3PD_EXT0.29486363/group.det-slhc.5557666.EXT0._000002.D3PD.root
root://eosatlas//eos//atlas/atlascerngroupdisk/det-slhc/SCOPING/group.det-slhc.mc12_14TeV.147807.PowhegPythia8_AU2CT10_Zmumu.recon.ESD.e1564_s1762_s1777_r6030.v2.trkD3PD_EXT0.29486363/group.det-slhc.5557666.EXT0._000003.D3PD.root
root://eosatlas//eos//atlas/atlascerngroupdisk/det-slhc/SCOPING/group.det-slhc.mc12_14TeV.147807.PowhegPythia8_AU2CT10_Zmumu.recon.ESD.e1564_s1762_s1777_r6030.v2.trkD3PD_EXT0.29486363/group.det-slhc.5557666.EXT0._000004.D3PD.root
root://eosatlas//eos//atlas/atlascerngroupdisk/det-slhc/SCOPING/group.det-slhc.mc12_14TeV.147807.PowhegPythia8_AU2CT10_Zmumu.recon.ESD.e1564_s1762_s1777_r6030.v2.trkD3PD_EXT0.29486363/group.det-slhc.5557666.EXT0._000005.D3PD.root
root://eosatlas//eos//atlas/atlascerngroupdisk/det-slhc/SCOPING/group.det-slhc.mc12_14TeV.147807.PowhegPythia8_AU2CT10_Zmumu.recon.ESD.e1564_s1762_s1777_r6030.v2.trkD3PD_EXT0.29486363/group.det-slhc.5557666.EXT0._000006.D3PD.root
root://eosatlas//eos//atlas/atlascerngroupdisk/det-slhc/SCOPING/group.det-slhc.mc12_14TeV.147807.PowhegPythia8_AU2CT10_Zmumu.recon.ESD.e1564_s1762_s1777_r6030.v2.trkD3PD_EXT0.29486363/group.det-slhc.5557666.EXT0._000007.D3PD.root
root://eosatlas//eos//atlas/atlascerngroupdisk/det-slhc/SCOPING/group.det-slhc.mc12_14TeV.147807.PowhegPythia8_AU2CT10_Zmumu.recon.ESD.e1564_s1762_s1777_r6030.v2.trkD3PD_EXT0.29486363/group.det-slhc.5557666.EXT0._000008.D3PD.root
root://eosatlas//eos//atlas/atlascerngroupdisk/det-slhc/SCOPING/group.det-slhc.mc12_14TeV.147807.PowhegPythia8_AU2CT10_Zmumu.recon.ESD.e1564_s1762_s1777_r6030.v2.trkD3PD_EXT0.29486363/group.det-slhc.5557666.EXT0._000009.D3PD.root
root://eosatlas//eos//atlas/atlascerngroupdisk/det-slhc/SCOPING/group.det-slhc.mc12_14TeV.147807.PowhegPythia8_AU2CT10_Zmumu.recon.ESD.e1564_s1762_s1777_r6030.v2.trkD3PD_EXT0.29486363/group.det-slhc.5557666.EXT0._000010.D3PD.root
root://eosatlas//eos//atlas/atlascerngroupdisk/det-slhc/SCOPING/group.det-slhc.mc12_14TeV.147807.PowhegPythia8_AU2CT10_Zmumu.recon.ESD.e1564_s1762_s1777_r6030.v2.trkD3PD_EXT0.29486363/group.det-slhc.5557666.EXT0._000011.D3PD.root
root://eosatlas//eos//atlas/atlascerngroupdisk/det-slhc/SCOPING/group.det-slhc.mc12_14TeV.147807.PowhegPythia8_AU2CT10_Zmumu.recon.ESD.e1564_s1762_s1777_r6030.v2.trkD3PD_EXT0.29486363/group.det-slhc.5557666.EXT0._000012.D3PD.root
root://eosatlas//eos//atlas/atlascerngroupdisk/det-slhc/SCOPING/group.det-slhc.mc12_14TeV.147807.PowhegPythia8_AU2CT10_Zmumu.recon.ESD.e1564_s1762_s1777_r6030.v2.trkD3PD_EXT0.29486363/group.det-slhc.5557666.EXT0._000013.D3PD.root
root://eosatlas//eos//atlas/atlascerngroupdisk/det-slhc/SCOPING/group.det-slhc.mc12_14TeV.147807.PowhegPythia8_AU2CT10_Zmumu.recon.ESD.e1564_s1762_s1777_r6030.v2.trkD3PD_EXT0.29486363/group.det-slhc.5557666.EXT0._000014.D3PD.root
root://eosatlas//eos//atlas/atlascerngroupdisk/det-slhc/SCOPING/group.det-slhc.mc12_14TeV.147807.PowhegPythia8_AU2CT10_Zmumu.recon.ESD.e1564_s1762_s1777_r6030.v2.trkD3PD_EXT0.29486363/group.det-slhc.5557666.EXT0._000015.D3PD.root
root://eosatlas//eos//atlas/atlascerngroupdisk/det-slhc/SCOPING/group.det-slhc.mc12_14TeV.147807.PowhegPythia8_AU2CT10_Zmumu.recon.ESD.e1564_s1762_s1777_r6030.v2.trkD3PD_EXT0.29486363/group.det-slhc.5557666.EXT0._000016.D3PD.root
root://eosatlas//eos//atlas/atlascerngroupdisk/det-slhc/SCOPING/group.det-slhc.mc12_14TeV.147807.PowhegPythia8_AU2CT10_Zmumu.recon.ESD.e1564_s1762_s1777_r6030.v2.trkD3PD_EXT0.29486363/group.det-slhc.5557666.EXT0._000017.D3PD.root
root://eosatlas//eos//atlas/atlascerngroupdisk/det-slhc/SCOPING/group.det-slhc.mc12_14TeV.147807.PowhegPythia8_AU2CT10_Zmumu.recon.ESD.e1564_s1762_s1777_r6030.v2.trkD3PD_EXT0.29486363/group.det-slhc.5557666.EXT0._000018.D3PD.root
root://eosatlas//eos//atlas/atlascerngroupdisk/det-slhc/SCOPING/group.det-slhc.mc12_14TeV.147807.PowhegPythia8_AU2CT10_Zmumu.recon.ESD.e1564_s1762_s1777_r6030.v2.trkD3PD_EXT0.29486363/group.det-slhc.5557666.EXT0._000019.D3PD.root
root://eosatlas//eos//atlas/atlascerngroupdisk/det-slhc/SCOPING/group.det-slhc.mc12_14TeV.147807.PowhegPythia8_AU2CT10_Zmumu.recon.ESD.e1564_s1762_s1777_r6030.v2.trkD3PD_EXT0.29486363/group.det-slhc.5557666.EXT0._000020.D3PD.root
root://eosatlas//eos//atlas/atlascerngroupdisk/det-slhc/SCOPING/group.det-slhc.mc12_14TeV.147807.PowhegPythia8_AU2CT10_Zmumu.recon.ESD.e1564_s1762_s1777_r6030.v2.trkD3PD_EXT0.29486363/group.det-slhc.5557666.EXT0._000021.D3PD.root
root://eosatlas//eos//atlas/atlascerngroupdisk/det-slhc/SCOPING/group.det-slhc.mc12_14TeV.147807.PowhegPythia8_AU2CT10_Zmumu.recon.ESD.e1564_s1762_s1777_r6030.v2.trkD3PD_EXT0.29486363/group.det-slhc.5557666.EXT0._000022.D3PD.root
root://eosatlas//eos//atlas/atlascerngroupdisk/det-slhc/SCOPING/group.det-slhc.mc12_14TeV.147807.PowhegPythia8_AU2CT10_Zmumu.recon.ESD.e1564_s1762_s1777_r6030.v2.trkD3PD_EXT0.29486363/group.det-slhc.5557666.EXT0._000023.D3PD.root
root://eosatlas//eos//atlas/atlascerngroupdisk/det-slhc/SCOPING/group.det-slhc.mc12_14TeV.147807.PowhegPythia8_AU2CT10_Zmumu.recon.ESD.e1564_s1762_s1777_r6030.v2.trkD3PD_EXT0.29486363/group.det-slhc.5557666.EXT0._000024.D3PD.root
root://eosatlas//eos//atlas/atlascerngroupdisk/det-slhc/SCOPING/group.det-slhc.mc12_14TeV.147807.PowhegPythia8_AU2CT10_Zmumu.recon.ESD.e1564_s1762_s1777_r6030.v2.trkD3PD_EXT0.29486363/group.det-slhc.5557666.EXT0._000025.D3PD.root
root://eosatlas//eos//atlas/atlascerngroupdisk/det-slhc/SCOPING/group.det-slhc.mc12_14TeV.147807.PowhegPythia8_AU2CT10_Zmumu.recon.ESD.e1564_s1762_s1777_r6030.v2.trkD3PD_EXT0.29486363/group.det-slhc.5557666.EXT0._000026.D3PD.root
root://eosatlas//eos//atlas/atlascerngroupdisk/det-slhc/SCOPING/group.det-slhc.mc12_14TeV.147807.PowhegPythia8_AU2CT10_Zmumu.recon.ESD.e1564_s1762_s1777_r6030.v2.trkD3PD_EXT0.29486363/group.det-slhc.5557666.EXT0._000027.D3PD.root
root://eosatlas//eos//atlas/atlascerngroupdisk/det-slhc/SCOPING/group.det-slhc.mc12_14TeV.147807.PowhegPythia8_AU2CT10_Zmumu.recon.ESD.e1564_s1762_s1777_r6030.v2.trkD3PD_EXT0.29486363/group.det-slhc.5557666.EXT0._000028.D3PD.root
root://eosatlas//eos//atlas/atlascerngroupdisk/det-slhc/SCOPING/group.det-slhc.mc12_14TeV.147807.PowhegPythia8_AU2CT10_Zmumu.recon.ESD.e1564_s1762_s1777_r6030.v2.trkD3PD_EXT0.29486363/group.det-slhc.5557666.EXT0._000029.D3PD.root
root://eosatlas//eos//atlas/atlascerngroupdisk/det-slhc/SCOPING/group.det-slhc.mc12_14TeV.147807.PowhegPythia8_AU2CT10_Zmumu.recon.ESD.e1564_s1762_s1777_r6030.v2.trkD3PD_EXT0.29486363/group.det-slhc.5557666.EXT0._000030.D3PD.root
root://eosatlas//eos//atlas/atlascerngroupdisk/det-slhc/SCOPING/group.det-slhc.mc12_14TeV.147807.PowhegPythia8_AU2CT10_Zmumu.recon.ESD.e1564_s1762_s1777_r6030.v2.trkD3PD_EXT0.29486363/group.det-slhc.5557666.EXT0._000031.D3PD.root
root://eosatlas//eos//atlas/atlascerngroupdisk/det-slhc/SCOPING/group.det-slhc.mc12_14TeV.147807.PowhegPythia8_AU2CT10_Zmumu.recon.ESD.e1564_s1762_s1777_r6030.v2.trkD3PD_EXT0.29486363/group.det-slhc.5557666.EXT0._000032.D3PD.root
root://eosatlas//eos//atlas/atlascerngroupdisk/det-slhc/SCOPING/group.det-slhc.mc12_14TeV.147807.PowhegPythia8_AU2CT10_Zmumu.recon.ESD.e1564_s1762_s1777_r6030.v2.trkD3PD_EXT0.29486363/group.det-slhc.5557666.EXT0._000033.D3PD.root
root://eosatlas//eos//atlas/atlascerngroupdisk/det-slhc/SCOPING/group.det-slhc.mc12_14TeV.147807.PowhegPythia8_AU2CT10_Zmumu.recon.ESD.e1564_s1762_s1777_r6030.v2.trkD3PD_EXT0.29486363/group.det-slhc.5557666.EXT0._000034.D3PD.root
root://eosatlas//eos//atlas/atlascerngroupdisk/det-slhc/SCOPING/group.det-slhc.mc12_14TeV.147807.PowhegPythia8_AU2CT10_Zmumu.recon.ESD.e1564_s1762_s1777_r6030.v2.trkD3PD_EXT0.29486363/group.det-slhc.5557666.EXT0._000035.D3PD.root
root://eosatlas//eos//atlas/atlascerngroupdisk/det-slhc/SCOPING/group.det-slhc.mc12_14TeV.147807.PowhegPythia8_AU2CT10_Zmumu.recon.ESD.e1564_s1762_s1777_r6030.v2.trkD3PD_EXT0.29486363/group.det-slhc.5557666.EXT0._000060.D3PD.root
root://eosatlas//eos//atlas/atlascerngroupdisk/det-slhc/SCOPING/group.det-slhc.mc12_14TeV.147807.PowhegPythia8_AU2CT10_Zmumu.recon.ESD.e1564_s1762_s1777_r6030.v2.trkD3PD_EXT0.29486363/group.det-slhc.5557666.EXT0._000061.D3PD.root
root://eosatlas//eos//atlas/atlascerngroupdisk/det-slhc/SCOPING/group.det-slhc.mc12_14TeV.147807.PowhegPythia8_AU2CT10_Zmumu.recon.ESD.e1564_s1762_s1777_r6030.v2.trkD3PD_EXT0.29486363/group.det-slhc.5557666.EXT0._000062.D3PD.root
root://eosatlas//eos//atlas/atlascerngroupdisk/det-slhc/SCOPING/group.det-slhc.mc12_14TeV.147807.PowhegPythia8_AU2CT10_Zmumu.recon.ESD.e1564_s1762_s1777_r6030.v2.trkD3PD_EXT0.29486363/group.det-slhc.5557666.EXT0._000063.D3PD.root
root://eosatlas//eos//atlas/atlascerngroupdisk/det-slhc/SCOPING/group.det-slhc.mc12_14TeV.147807.PowhegPythia8_AU2CT10_Zmumu.recon.ESD.e1564_s1762_s1777_r6030.v2.trkD3PD_EXT0.29486363/group.det-slhc.5557666.EXT0._000064.D3PD.root
root://eosatlas//eos//atlas/atlascerngroupdisk/det-slhc/SCOPING/group.det-slhc.mc12_14TeV.147807.PowhegPythia8_AU2CT10_Zmumu.recon.ESD.e1564_s1762_s1777_r6030.v2.trkD3PD_EXT0.29486363/group.det-slhc.5557666.EXT0._000065.D3PD.root
root://eosatlas//eos//atlas/atlascerngroupdisk/det-slhc/SCOPING/group.det-slhc.mc12_14TeV.147807.PowhegPythia8_AU2CT10_Zmumu.recon.ESD.e1564_s1762_s1777_r6030.v2.trkD3PD_EXT0.29486363/group.det-slhc.5557666.EXT0._000066.D3PD.root
root://eosatlas//eos//atlas/atlascerngroupdisk/det-slhc/SCOPING/group.det-slhc.mc12_14TeV.147807.PowhegPythia8_AU2CT10_Zmumu.recon.ESD.e1564_s1762_s1777_r6030.v2.trkD3PD_EXT0.29486363/group.det-slhc.5557666.EXT0._000067.D3PD.root
root://eosatlas//eos//atlas/atlascerngroupdisk/det-slhc/SCOPING/group.det-slhc.mc12_14TeV.147807.PowhegPythia8_AU2CT10_Zmumu.recon.ESD.e1564_s1762_s1777_r6030.v2.trkD3PD_EXT0.29486363/group.det-slhc.5557666.EXT0._000068.D3PD.root
root://eosatlas//eos//atlas/atlascerngroupdisk/det-slhc/SCOPING/group.det-slhc.mc12_14TeV.147807.PowhegPythia8_AU2CT10_Zmumu.recon.ESD.e1564_s1762_s1777_r6030.v2.trkD3PD_EXT0.29486363/group.det-slhc.5557666.EXT0._000069.D3PD.root
root://eosatlas//eos//atlas/atlascerngroupdisk/det-slhc/SCOPING/group.det-slhc.mc12_14TeV.147807.PowhegPythia8_AU2CT10_Zmumu.recon.ESD.e1564_s1762_s1777_r6030.v2.trkD3PD_EXT0.29486363/group.det-slhc.5557666.EXT0._000070.D3PD.root
root://eosatlas//eos//atlas/atlascerngroupdisk/det-slhc/SCOPING/group.det-slhc.mc12_14TeV.147807.PowhegPythia8_AU2CT10_Zmumu.recon.ESD.e1564_s1762_s1777_r6030.v2.trkD3PD_EXT0.29486363/group.det-slhc.5557666.EXT0._000071.D3PD.root
root://eosatlas//eos//atlas/atlascerngroupdisk/det-slhc/SCOPING/group.det-slhc.mc12_14TeV.147807.PowhegPythia8_AU2CT10_Zmumu.recon.ESD.e1564_s1762_s1777_r6030.v2.trkD3PD_EXT0.29486363/group.det-slhc.5557666.EXT0._000072.D3PD.root
root://eosatlas//eos//atlas/atlascerngroupdisk/det-slhc/SCOPING/group.det-slhc.mc12_14TeV.147807.PowhegPythia8_AU2CT10_Zmumu.recon.ESD.e1564_s1762_s1777_r6030.v2.trkD3PD_EXT0.29486363/group.det-slhc.5557666.EXT0._000073.D3PD.root
root://eosatlas//eos//atlas/atlascerngroupdisk/det-slhc/SCOPING/group.det-slhc.mc12_14TeV.147807.PowhegPythia8_AU2CT10_Zmumu.recon.ESD.e1564_s1762_s1777_r6030.v2.trkD3PD_EXT0.29486363/group.det-slhc.5557666.EXT0._000074.D3PD.root
root://eosatlas//eos//atlas/atlascerngroupdisk/det-slhc/SCOPING/group.det-slhc.mc12_14TeV.147807.PowhegPythia8_AU2CT10_Zmumu.recon.ESD.e1564_s1762_s1777_r6030.v2.trkD3PD_EXT0.29486363/group.det-slhc.5557666.EXT0._000075.D3PD.root
root://eosatlas//eos//atlas/atlascerngroupdisk/det-slhc/SCOPING/group.det-slhc.mc12_14TeV.147807.PowhegPythia8_AU2CT10_Zmumu.recon.ESD.e1564_s1762_s1777_r6030.v2.trkD3PD_EXT0.29486363/group.det-slhc.5557666.EXT0._000076.D3PD.root
root://eosatlas//eos//atlas/atlascerngroupdisk/det-slhc/SCOPING/group.det-slhc.mc12_14TeV.147807.PowhegPythia8_AU2CT10_Zmumu.recon.ESD.e1564_s1762_s1777_r6030.v2.trkD3PD_EXT0.29486363/group.det-slhc.5557666.EXT0._000077.D3PD.root
root://eosatlas//eos//atlas/atlascerngroupdisk/det-slhc/SCOPING/group.det-slhc.mc12_14TeV.147807.PowhegPythia8_AU2CT10_Zmumu.recon.ESD.e1564_s1762_s1777_r6030.v2.trkD3PD_EXT0.29486363/group.det-slhc.5557666.EXT0._000078.D3PD.root
root://eosatlas//eos//atlas/atlascerngroupdisk/det-slhc/SCOPING/group.det-slhc.mc12_14TeV.147807.PowhegPythia8_AU2CT10_Zmumu.recon.ESD.e1564_s1762_s1777_r6030.v2.trkD3PD_EXT0.29486363/group.det-slhc.5557666.EXT0._000079.D3PD.root
root://eosatlas//eos//atlas/atlascerngroupdisk/det-slhc/SCOPING/group.det-slhc.mc12_14TeV.147807.PowhegPythia8_AU2CT10_Zmumu.recon.ESD.e1564_s1762_s1777_r6030.v2.trkD3PD_EXT0.29486363/group.det-slhc.5557666.EXT0._000080.D3PD.root
root://eosatlas//eos//atlas/atlascerngroupdisk/det-slhc/SCOPING/group.det-slhc.mc12_14TeV.147807.PowhegPythia8_AU2CT10_Zmumu.recon.ESD.e1564_s1762_s1777_r6030.v2.trkD3PD_EXT0.29486363/group.det-slhc.5557666.EXT0._000081.D3PD.root
root://eosatlas//eos//atlas/atlascerngroupdisk/det-slhc/SCOPING/group.det-slhc.mc12_14TeV.147807.PowhegPythia8_AU2CT10_Zmumu.recon.ESD.e1564_s1762_s1777_r6030.v2.trkD3PD_EXT0.29486363/group.det-slhc.5557666.EXT0._000082.D3PD.root
root://eosatlas//eos//atlas/atlascerngroupdisk/det-slhc/SCOPING/group.det-slhc.mc12_14TeV.147807.PowhegPythia8_AU2CT10_Zmumu.recon.ESD.e1564_s1762_s1777_r6030.v2.trkD3PD_EXT0.29486363/group.det-slhc.5557666.EXT0._000083.D3PD.root
root://eosatlas//eos//atlas/atlascerngroupdisk/det-slhc/SCOPING/group.det-slhc.mc12_14TeV.147807.PowhegPythia8_AU2CT10_Zmumu.recon.ESD.e1564_s1762_s1777_r6030.v2.trkD3PD_EXT0.29486363/group.det-slhc.5557666.EXT0._000084.D3PD.root
root://eosatlas//eos//atlas/atlascerngroupdisk/det-slhc/SCOPING/group.det-slhc.mc12_14TeV.147807.PowhegPythia8_AU2CT10_Zmumu.recon.ESD.e1564_s1762_s1777_r6030.v2.trkD3PD_EXT0.29486363/group.det-slhc.5557666.EXT0._000134.D3PD.root
root://eosatlas//eos//atlas/atlascerngroupdisk/det-slhc/SCOPING/group.det-slhc.mc12_14TeV.147807.PowhegPythia8_AU2CT10_Zmumu.recon.ESD.e1564_s1762_s1777_r6030.v2.trkD3PD_EXT0.29486363/group.det-slhc.5557666.EXT0._000135.D3PD.root
root://eosatlas//eos//atlas/atlascerngroupdisk/det-slhc/SCOPING/group.det-slhc.mc12_14TeV.147807.PowhegPythia8_AU2CT10_Zmumu.recon.ESD.e1564_s1762_s1777_r6030.v2.trkD3PD_EXT0.29486363/group.det-slhc.5557666.EXT0._000136.D3PD.root
root://eosatlas//eos//atlas/atlascerngroupdisk/det-slhc/SCOPING/group.det-slhc.mc12_14TeV.147807.PowhegPythia8_AU2CT10_Zmumu.recon.ESD.e1564_s1762_s1777_r6030.v2.trkD3PD_EXT0.29486363/group.det-slhc.5557666.EXT0._000137.D3PD.root
root://eosatlas//eos//atlas/atlascerngroupdisk/det-slhc/SCOPING/group.det-slhc.mc12_14TeV.147807.PowhegPythia8_AU2CT10_Zmumu.recon.ESD.e1564_s1762_s1777_r6030.v2.trkD3PD_EXT0.29486363/group.det-slhc.5557666.EXT0._000138.D3PD.root
root://eosatlas//eos//atlas/atlascerngroupdisk/det-slhc/SCOPING/group.det-slhc.mc12_14TeV.147807.PowhegPythia8_AU2CT10_Zmumu.recon.ESD.e1564_s1762_s1777_r6030.v2.trkD3PD_EXT0.29486363/group.det-slhc.5557666.EXT0._000139.D3PD.root
root://eosatlas//eos//atlas/atlascerngroupdisk/det-slhc/SCOPING/group.det-slhc.mc12_14TeV.147807.PowhegPythia8_AU2CT10_Zmumu.recon.ESD.e1564_s1762_s1777_r6030.v2.trkD3PD_EXT0.29486363/group.det-slhc.5557666.EXT0._000140.D3PD.root
root://eosatlas//eos//atlas/atlascerngroupdisk/det-slhc/SCOPING/group.det-slhc.mc12_14TeV.147807.PowhegPythia8_AU2CT10_Zmumu.recon.ESD.e1564_s1762_s1777_r6030.v2.trkD3PD_EXT0.29486363/group.det-slhc.5557666.EXT0._000141.D3PD.root
root://eosatlas//eos//atlas/atlascerngroupdisk/det-slhc/SCOPING/group.det-slhc.mc12_14TeV.147807.PowhegPythia8_AU2CT10_Zmumu.recon.ESD.e1564_s1762_s1777_r6030.v2.trkD3PD_EXT0.29486363/group.det-slhc.5557666.EXT0._000142.D3PD.root
root://eosatlas//eos//atlas/atlascerngroupdisk/det-slhc/SCOPING/group.det-slhc.mc12_14TeV.147807.PowhegPythia8_AU2CT10_Zmumu.recon.ESD.e1564_s1762_s1777_r6030.v2.trkD3PD_EXT0.29486363/group.det-slhc.5557666.EXT0._000143.D3PD.root
root://eosatlas//eos//atlas/atlascerngroupdisk/det-slhc/SCOPING/group.det-slhc.mc12_14TeV.147807.PowhegPythia8_AU2CT10_Zmumu.recon.ESD.e1564_s1762_s1777_r6030.v2.trkD3PD_EXT0.29486363/group.det-slhc.5557666.EXT0._000144.D3PD.root
root://eosatlas//eos//atlas/atlascerngroupdisk/det-slhc/SCOPING/group.det-slhc.mc12_14TeV.147807.PowhegPythia8_AU2CT10_Zmumu.recon.ESD.e1564_s1762_s1777_r6030.v2.trkD3PD_EXT0.29486363/group.det-slhc.5557666.EXT0._000145.D3PD.root
root://eosatlas//eos//atlas/atlascerngroupdisk/det-slhc/SCOPING/group.det-slhc.mc12_14TeV.147807.PowhegPythia8_AU2CT10_Zmumu.recon.ESD.e1564_s1762_s1777_r6030.v2.trkD3PD_EXT0.29486363/group.det-slhc.5557666.EXT0._000146.D3PD.root
root://eosatlas//eos//atlas/atlascerngroupdisk/det-slhc/SCOPING/group.det-slhc.mc12_14TeV.147807.PowhegPythia8_AU2CT10_Zmumu.recon.ESD.e1564_s1762_s1777_r6030.v2.trkD3PD_EXT0.29486363/group.det-slhc.5557666.EXT0._000147.D3PD.root
root://eosatlas//eos//atlas/atlascerngroupdisk/det-slhc/SCOPING/group.det-slhc.mc12_14TeV.147807.PowhegPythia8_AU2CT10_Zmumu.recon.ESD.e1564_s1762_s1777_r6030.v2.trkD3PD_EXT0.29486363/group.det-slhc.5557666.EXT0._000148.D3PD.root
root://eosatlas//eos//atlas/atlascerngroupdisk/det-slhc/SCOPING/group.det-slhc.mc12_14TeV.147807.PowhegPythia8_AU2CT10_Zmumu.recon.ESD.e1564_s1762_s1777_r6030.v2.trkD3PD_EXT0.29486363/group.det-slhc.5557666.EXT0._000149.D3PD.root
root://eosatlas//eos//atlas/atlascerngroupdisk/det-slhc/SCOPING/group.det-slhc.mc12_14TeV.147807.PowhegPythia8_AU2CT10_Zmumu.recon.ESD.e1564_s1762_s1777_r6030.v2.trkD3PD_EXT0.29486363/group.det-slhc.5557666.EXT0._000150.D3PD.root
root://eosatlas//eos//atlas/atlascerngroupdisk/det-slhc/SCOPING/group.det-slhc.mc12_14TeV.147807.PowhegPythia8_AU2CT10_Zmumu.recon.ESD.e1564_s1762_s1777_r6030.v2.trkD3PD_EXT0.29486363/group.det-slhc.5557666.EXT0._000151.D3PD.root
root://eosatlas//eos//atlas/atlascerngroupdisk/det-slhc/SCOPING/group.det-slhc.mc12_14TeV.147807.PowhegPythia8_AU2CT10_Zmumu.recon.ESD.e1564_s1762_s1777_r6030.v2.trkD3PD_EXT0.29486363/group.det-slhc.5557666.EXT0._000152.D3PD.root
root://eosatlas//eos//atlas/atlascerngroupdisk/det-slhc/SCOPING/group.det-slhc.mc12_14TeV.147807.PowhegPythia8_AU2CT10_Zmumu.recon.ESD.e1564_s1762_s1777_r6030.v2.trkD3PD_EXT0.29486363/group.det-slhc.5557666.EXT0._000153.D3PD.root
root://eosatlas//eos//atlas/atlascerngroupdisk/det-slhc/SCOPING/group.det-slhc.mc12_14TeV.147807.PowhegPythia8_AU2CT10_Zmumu.recon.ESD.e1564_s1762_s1777_r6030.v2.trkD3PD_EXT0.29486363/group.det-slhc.5557666.EXT0._000154.D3PD.root
root://eosatlas//eos//atlas/atlascerngroupdisk/det-slhc/SCOPING/group.det-slhc.mc12_14TeV.147807.PowhegPythia8_AU2CT10_Zmumu.recon.ESD.e1564_s1762_s1777_r6030.v2.trkD3PD_EXT0.29486363/group.det-slhc.5557666.EXT0._000155.D3PD.root
root://eosatlas//eos//atlas/atlascerngroupdisk/det-slhc/SCOPING/group.det-slhc.mc12_14TeV.147807.PowhegPythia8_AU2CT10_Zmumu.recon.ESD.e1564_s1762_s1777_r6030.v2.trkD3PD_EXT0.29486363/group.det-slhc.5557666.EXT0._000156.D3PD.root
root://eosatlas//eos//atlas/atlascerngroupdisk/det-slhc/SCOPING/group.det-slhc.mc12_14TeV.147807.PowhegPythia8_AU2CT10_Zmumu.recon.ESD.e1564_s1762_s1777_r6030.v2.trkD3PD_EXT0.29486363/group.det-slhc.5557666.EXT0._000157.D3PD.root
root://eosatlas//eos//atlas/atlascerngroupdisk/det-slhc/SCOPING/group.det-slhc.mc12_14TeV.147807.PowhegPythia8_AU2CT10_Zmumu.recon.ESD.e1564_s1762_s1777_r6030.v2.trkD3PD_EXT0.29486363/group.det-slhc.5557666.EXT0._000158.D3PD.root
root://eosatlas//eos//atlas/atlascerngroupdisk/det-slhc/SCOPING/group.det-slhc.mc12_14TeV.147807.PowhegPythia8_AU2CT10_Zmumu.recon.ESD.e1564_s1762_s1777_r6030.v2.trkD3PD_EXT0.29486363/group.det-slhc.5557666.EXT0._000159.D3PD.root
root://eosatlas//eos//atlas/atlascerngroupdisk/det-slhc/SCOPING/group.det-slhc.mc12_14TeV.147807.PowhegPythia8_AU2CT10_Zmumu.recon.ESD.e1564_s1762_s1777_r6030.v2.trkD3PD_EXT0.29486363/group.det-slhc.5557666.EXT0._000160.D3PD.root
root://eosatlas//eos//atlas/atlascerngroupdisk/det-slhc/SCOPING/group.det-slhc.mc12_14TeV.147807.PowhegPythia8_AU2CT10_Zmumu.recon.ESD.e1564_s1762_s1777_r6030.v2.trkD3PD_EXT0.29486363/group.det-slhc.5557666.EXT0._000161.D3PD.root
root://eosatlas//eos//atlas/atlascerngroupdisk/det-slhc/SCOPING/group.det-slhc.mc12_14TeV.147807.PowhegPythia8_AU2CT10_Zmumu.recon.ESD.e1564_s1762_s1777_r6030.v2.trkD3PD_EXT0.29486363/group.det-slhc.5557666.EXT0._000162.D3PD.root
root://eosatlas//eos//atlas/atlascerngroupdisk/det-slhc/SCOPING/group.det-slhc.mc12_14TeV.147807.PowhegPythia8_AU2CT10_Zmumu.recon.ESD.e1564_s1762_s1777_r6030.v2.trkD3PD_EXT0.29486363/group.det-slhc.5557666.EXT0._000163.D3PD.root
root://eosatlas//eos//atlas/atlascerngroupdisk/det-slhc/SCOPING/group.det-slhc.mc12_14TeV.147807.PowhegPythia8_AU2CT10_Zmumu.recon.ESD.e1564_s1762_s1777_r6030.v2.trkD3PD_EXT0.29486363/group.det-slhc.5557666.EXT0._000164.D3PD.root
root://eosatlas//eos//atlas/atlascerngroupdisk/det-slhc/SCOPING/group.det-slhc.mc12_14TeV.147807.PowhegPythia8_AU2CT10_Zmumu.recon.ESD.e1564_s1762_s1777_r6030.v2.trkD3PD_EXT0.29486363/group.det-slhc.5557666.EXT0._000165.D3PD.root
root://eosatlas//eos//atlas/atlascerngroupdisk/det-slhc/SCOPING/group.det-slhc.mc12_14TeV.147807.PowhegPythia8_AU2CT10_Zmumu.recon.ESD.e1564_s1762_s1777_r6030.v2.trkD3PD_EXT0.29486363/group.det-slhc.5557666.EXT0._000166.D3PD.root
root://eosatlas//eos//atlas/atlascerngroupdisk/det-slhc/SCOPING/group.det-slhc.mc12_14TeV.147807.PowhegPythia8_AU2CT10_Zmumu.recon.ESD.e1564_s1762_s1777_r6030.v2.trkD3PD_EXT0.29486363/group.det-slhc.5557666.EXT0._000167.D3PD.root
root://eosatlas//eos//atlas/atlascerngroupdisk/det-slhc/SCOPING/group.det-slhc.mc12_14TeV.147807.PowhegPythia8_AU2CT10_Zmumu.recon.ESD.e1564_s1762_s1777_r6030.v2.trkD3PD_EXT0.29486363/group.det-slhc.5557666.EXT0._000168.D3PD.root
root://eosatlas//eos//atlas/atlascerngroupdisk/det-slhc/SCOPING/group.det-slhc.mc12_14TeV.147807.PowhegPythia8_AU2CT10_Zmumu.recon.ESD.e1564_s1762_s1777_r6030.v2.trkD3PD_EXT0.29486363/group.det-slhc.5557666.EXT0._000169.D3PD.root
root://eosatlas//eos//atlas/atlascerngroupdisk/det-slhc/SCOPING/group.det-slhc.mc12_14TeV.147807.PowhegPythia8_AU2CT10_Zmumu.recon.ESD.e1564_s1762_s1777_r6030.v2.trkD3PD_EXT0.29486363/group.det-slhc.5557666.EXT0._000170.D3PD.root
root://eosatlas//eos//atlas/atlascerngroupdisk/det-slhc/SCOPING/group.det-slhc.mc12_14TeV.147807.PowhegPythia8_AU2CT10_Zmumu.recon.ESD.e1564_s1762_s1777_r6030.v2.trkD3PD_EXT0.29486363/group.det-slhc.5557666.EXT0._000171.D3PD.root
root://eosatlas//eos//atlas/atlascerngroupdisk/det-slhc/SCOPING/group.det-slhc.mc12_14TeV.147807.PowhegPythia8_AU2CT10_Zmumu.recon.ESD.e1564_s1762_s1777_r6030.v2.trkD3PD_EXT0.29486363/group.det-slhc.5557666.EXT0._000172.D3PD.root
root://eosatlas//eos//atlas/atlascerngroupdisk/det-slhc/SCOPING/group.det-slhc.mc12_14TeV.147807.PowhegPythia8_AU2CT10_Zmumu.recon.ESD.e1564_s1762_s1777_r6030.v2.trkD3PD_EXT0.29486363/group.det-slhc.5557666.EXT0._000173.D3PD.root
root://eosatlas//eos//atlas/atlascerngroupdisk/det-slhc/SCOPING/group.det-slhc.mc12_14TeV.147807.PowhegPythia8_AU2CT10_Zmumu.recon.ESD.e1564_s1762_s1777_r6030.v2.trkD3PD_EXT0.29486363/group.det-slhc.5557666.EXT0._000174.D3PD.root
root://eosatlas//eos//atlas/atlascerngroupdisk/det-slhc/SCOPING/group.det-slhc.mc12_14TeV.147807.PowhegPythia8_AU2CT10_Zmumu.recon.ESD.e1564_s1762_s1777_r6030.v2.trkD3PD_EXT0.29486363/group.det-slhc.5557666.EXT0._000175.D3PD.root
root://eosatlas//eos//atlas/atlascerngroupdisk/det-slhc/SCOPING/group.det-slhc.mc12_14TeV.147807.PowhegPythia8_AU2CT10_Zmumu.recon.ESD.e1564_s1762_s1777_r6030.v2.trkD3PD_EXT0.29486363/group.det-slhc.5557666.EXT0._000176.D3PD.root
root://eosatlas//eos//atlas/atlascerngroupdisk/det-slhc/SCOPING/group.det-slhc.mc12_14TeV.147807.PowhegPythia8_AU2CT10_Zmumu.recon.ESD.e1564_s1762_s1777_r6030.v2.trkD3PD_EXT0.29486363/group.det-slhc.5557666.EXT0._000177.D3PD.root
root://eosatlas//eos//atlas/atlascerngroupdisk/det-slhc/SCOPING/group.det-slhc.mc12_14TeV.147807.PowhegPythia8_AU2CT10_Zmumu.recon.ESD.e1564_s1762_s1777_r6030.v2.trkD3PD_EXT0.29486363/group.det-slhc.5557666.EXT0._000178.D3PD.root
root://eosatlas//eos//atlas/atlascerngroupdisk/det-slhc/SCOPING/group.det-slhc.mc12_14TeV.147807.PowhegPythia8_AU2CT10_Zmumu.recon.ESD.e1564_s1762_s1777_r6030.v2.trkD3PD_EXT0.29486363/group.det-slhc.5557666.EXT0._000179.D3PD.root
root://eosatlas//eos//atlas/atlascerngroupdisk/det-slhc/SCOPING/group.det-slhc.mc12_14TeV.147807.PowhegPythia8_AU2CT10_Zmumu.recon.ESD.e1564_s1762_s1777_r6030.v2.trkD3PD_EXT0.29486363/group.det-slhc.5557666.EXT0._000180.D3PD.root
root://eosatlas//eos//atlas/atlascerngroupdisk/det-slhc/SCOPING/group.det-slhc.mc12_14TeV.147807.PowhegPythia8_AU2CT10_Zmumu.recon.ESD.e1564_s1762_s1777_r6030.v2.trkD3PD_EXT0.29486363/group.det-slhc.5557666.EXT0._000181.D3PD.root
root://eosatlas//eos//atlas/atlascerngroupdisk/det-slhc/SCOPING/group.det-slhc.mc12_14TeV.147807.PowhegPythia8_AU2CT10_Zmumu.recon.ESD.e1564_s1762_s1777_r6030.v2.trkD3PD_EXT0.29486363/group.det-slhc.5557666.EXT0._000182.D3PD.root
root://eosatlas//eos//atlas/atlascerngroupdisk/det-slhc/SCOPING/group.det-slhc.mc12_14TeV.147807.PowhegPythia8_AU2CT10_Zmumu.recon.ESD.e1564_s1762_s1777_r6030.v2.trkD3PD_EXT0.29486363/group.det-slhc.5557666.EXT0._000183.D3PD.root
root://eosatlas//eos//atlas/atlascerngroupdisk/det-slhc/SCOPING/group.det-slhc.mc12_14TeV.147807.PowhegPythia8_AU2CT10_Zmumu.recon.ESD.e1564_s1762_s1777_r6030.v2.trkD3PD_EXT0.29486363/group.det-slhc.5557666.EXT0._000184.D3PD.root
root://eosatlas//eos//atlas/atlascerngroupdisk/det-slhc/SCOPING/group.det-slhc.mc12_14TeV.147807.PowhegPythia8_AU2CT10_Zmumu.recon.ESD.e1564_s1762_s1777_r6030.v2.trkD3PD_EXT0.29486363/group.det-slhc.5557666.EXT0._000185.D3PD.root
root://eosatlas//eos//atlas/atlascerngroupdisk/det-slhc/SCOPING/group.det-slhc.mc12_14TeV.147807.PowhegPythia8_AU2CT10_Zmumu.recon.ESD.e1564_s1762_s1777_r6030.v2.trkD3PD_EXT0.29486363/group.det-slhc.5557666.EXT0._000186.D3PD.root
root://eosatlas//eos//atlas/atlascerngroupdisk/det-slhc/SCOPING/group.det-slhc.mc12_14TeV.147807.PowhegPythia8_AU2CT10_Zmumu.recon.ESD.e1564_s1762_s1777_r6030.v2.trkD3PD_EXT0.29486363/group.det-slhc.5557666.EXT0._000187.D3PD.root
root://eosatlas//eos//atlas/atlascerngroupdisk/det-slhc/SCOPING/group.det-slhc.mc12_14TeV.147807.PowhegPythia8_AU2CT10_Zmumu.recon.ESD.e1564_s1762_s1777_r6030.v2.trkD3PD_EXT0.29486363/group.det-slhc.5557666.EXT0._000188.D3PD.root
root://eosatlas//eos//atlas/atlascerngroupdisk/det-slhc/SCOPING/group.det-slhc.mc12_14TeV.147807.PowhegPythia8_AU2CT10_Zmumu.recon.ESD.e1564_s1762_s1777_r6030.v2.trkD3PD_EXT0.29486363/group.det-slhc.5557666.EXT0._000189.D3PD.root
root://eosatlas//eos//atlas/atlascerngroupdisk/det-slhc/SCOPING/group.det-slhc.mc12_14TeV.147807.PowhegPythia8_AU2CT10_Zmumu.recon.ESD.e1564_s1762_s1777_r6030.v2.trkD3PD_EXT0.29486363/group.det-slhc.5557666.EXT0._000190.D3PD.root
root://eosatlas//eos//atlas/atlascerngroupdisk/det-slhc/SCOPING/group.det-slhc.mc12_14TeV.147807.PowhegPythia8_AU2CT10_Zmumu.recon.ESD.e1564_s1762_s1777_r6030.v2.trkD3PD_EXT0.29486363/group.det-slhc.5557666.EXT0._000191.D3PD.root
root://eosatlas//eos//atlas/atlascerngroupdisk/det-slhc/SCOPING/group.det-slhc.mc12_14TeV.147807.PowhegPythia8_AU2CT10_Zmumu.recon.ESD.e1564_s1762_s1777_r6030.v2.trkD3PD_EXT0.29486363/group.det-slhc.5557666.EXT0._000192.D3PD.root
root://eosatlas//eos//atlas/atlascerngroupdisk/det-slhc/SCOPING/group.det-slhc.mc12_14TeV.147807.PowhegPythia8_AU2CT10_Zmumu.recon.ESD.e1564_s1762_s1777_r6030.v2.trkD3PD_EXT0.29486363/group.det-slhc.5557666.EXT0._000193.D3PD.root
root://eosatlas//eos//atlas/atlascerngroupdisk/det-slhc/SCOPING/group.det-slhc.mc12_14TeV.147807.PowhegPythia8_AU2CT10_Zmumu.recon.ESD.e1564_s1762_s1777_r6030.v2.trkD3PD_EXT0.29486363/group.det-slhc.5557666.EXT0._000194.D3PD.root
root://eosatlas//eos//atlas/atlascerngroupdisk/det-slhc/SCOPING/group.det-slhc.mc12_14TeV.147807.PowhegPythia8_AU2CT10_Zmumu.recon.ESD.e1564_s1762_s1777_r6030.v2.trkD3PD_EXT0.29486363/group.det-slhc.5557666.EXT0._000195.D3PD.root
root://eosatlas//eos//atlas/atlascerngroupdisk/det-slhc/SCOPING/group.det-slhc.mc12_14TeV.147807.PowhegPythia8_AU2CT10_Zmumu.recon.ESD.e1564_s1762_s1777_r6030.v2.trkD3PD_EXT0.29486363/group.det-slhc.5557666.EXT0._000196.D3PD.root
root://eosatlas//eos//atlas/atlascerngroupdisk/det-slhc/SCOPING/group.det-slhc.mc12_14TeV.147807.PowhegPythia8_AU2CT10_Zmumu.recon.ESD.e1564_s1762_s1777_r6030.v2.trkD3PD_EXT0.29486363/group.det-slhc.5557666.EXT0._000197.D3PD.root
root://eosatlas//eos//atlas/atlascerngroupdisk/det-slhc/SCOPING/group.det-slhc.mc12_14TeV.147807.PowhegPythia8_AU2CT10_Zmumu.recon.ESD.e1564_s1762_s1777_r6030.v2.trkD3PD_EXT0.29486363/group.det-slhc.5557666.EXT0._000198.D3PD.root
root://eosatlas//eos//atlas/atlascerngroupdisk/det-slhc/SCOPING/group.det-slhc.mc12_14TeV.147807.PowhegPythia8_AU2CT10_Zmumu.recon.ESD.e1564_s1762_s1777_r6030.v2.trkD3PD_EXT0.29486363/group.det-slhc.5557666.EXT0._000199.D3PD.root
root://eosatlas//eos//atlas/atlascerngroupdisk/det-slhc/SCOPING/group.det-slhc.mc12_14TeV.147807.PowhegPythia8_AU2CT10_Zmumu.recon.ESD.e1564_s1762_s1777_r6030.v2.trkD3PD_EXT0.29486363/group.det-slhc.5557666.EXT0._000200.D3PD.root
root://eosatlas//eos//atlas/atlascerngroupdisk/det-slhc/SCOPING/group.det-slhc.mc12_14TeV.147807.PowhegPythia8_AU2CT10_Zmumu.recon.ESD.e1564_s1762_s1777_r6030.v2.trkD3PD_EXT0.29489920/group.det-slhc.5557666.EXT0._000036.D3PD.root
root://eosatlas//eos//atlas/atlascerngroupdisk/det-slhc/SCOPING/group.det-slhc.mc12_14TeV.147807.PowhegPythia8_AU2CT10_Zmumu.recon.ESD.e1564_s1762_s1777_r6030.v2.trkD3PD_EXT0.29489920/group.det-slhc.5557666.EXT0._000037.D3PD.root
root://eosatlas//eos//atlas/atlascerngroupdisk/det-slhc/SCOPING/group.det-slhc.mc12_14TeV.147807.PowhegPythia8_AU2CT10_Zmumu.recon.ESD.e1564_s1762_s1777_r6030.v2.trkD3PD_EXT0.29489920/group.det-slhc.5557666.EXT0._000038.D3PD.root
root://eosatlas//eos//atlas/atlascerngroupdisk/det-slhc/SCOPING/group.det-slhc.mc12_14TeV.147807.PowhegPythia8_AU2CT10_Zmumu.recon.ESD.e1564_s1762_s1777_r6030.v2.trkD3PD_EXT0.29489920/group.det-slhc.5557666.EXT0._000039.D3PD.root
root://eosatlas//eos//atlas/atlascerngroupdisk/det-slhc/SCOPING/group.det-slhc.mc12_14TeV.147807.PowhegPythia8_AU2CT10_Zmumu.recon.ESD.e1564_s1762_s1777_r6030.v2.trkD3PD_EXT0.29489920/group.det-slhc.5557666.EXT0._000040.D3PD.root
root://eosatlas//eos//atlas/atlascerngroupdisk/det-slhc/SCOPING/group.det-slhc.mc12_14TeV.147807.PowhegPythia8_AU2CT10_Zmumu.recon.ESD.e1564_s1762_s1777_r6030.v2.trkD3PD_EXT0.29489920/group.det-slhc.5557666.EXT0._000041.D3PD.root
root://eosatlas//eos//atlas/atlascerngroupdisk/det-slhc/SCOPING/group.det-slhc.mc12_14TeV.147807.PowhegPythia8_AU2CT10_Zmumu.recon.ESD.e1564_s1762_s1777_r6030.v2.trkD3PD_EXT0.29489920/group.det-slhc.5557666.EXT0._000042.D3PD.root
root://eosatlas//eos//atlas/atlascerngroupdisk/det-slhc/SCOPING/group.det-slhc.mc12_14TeV.147807.PowhegPythia8_AU2CT10_Zmumu.recon.ESD.e1564_s1762_s1777_r6030.v2.trkD3PD_EXT0.29489920/group.det-slhc.5557666.EXT0._000043.D3PD.root
root://eosatlas//eos//atlas/atlascerngroupdisk/det-slhc/SCOPING/group.det-slhc.mc12_14TeV.147807.PowhegPythia8_AU2CT10_Zmumu.recon.ESD.e1564_s1762_s1777_r6030.v2.trkD3PD_EXT0.29489920/group.det-slhc.5557666.EXT0._000044.D3PD.root
root://eosatlas//eos//atlas/atlascerngroupdisk/det-slhc/SCOPING/group.det-slhc.mc12_14TeV.147807.PowhegPythia8_AU2CT10_Zmumu.recon.ESD.e1564_s1762_s1777_r6030.v2.trkD3PD_EXT0.29489920/group.det-slhc.5557666.EXT0._000045.D3PD.root
root://eosatlas//eos//atlas/atlascerngroupdisk/det-slhc/SCOPING/group.det-slhc.mc12_14TeV.147807.PowhegPythia8_AU2CT10_Zmumu.recon.ESD.e1564_s1762_s1777_r6030.v2.trkD3PD_EXT0.29489920/group.det-slhc.5557666.EXT0._000046.D3PD.root
root://eosatlas//eos//atlas/atlascerngroupdisk/det-slhc/SCOPING/group.det-slhc.mc12_14TeV.147807.PowhegPythia8_AU2CT10_Zmumu.recon.ESD.e1564_s1762_s1777_r6030.v2.trkD3PD_EXT0.29489920/group.det-slhc.5557666.EXT0._000047.D3PD.root
root://eosatlas//eos//atlas/atlascerngroupdisk/det-slhc/SCOPING/group.det-slhc.mc12_14TeV.147807.PowhegPythia8_AU2CT10_Zmumu.recon.ESD.e1564_s1762_s1777_r6030.v2.trkD3PD_EXT0.29489920/group.det-slhc.5557666.EXT0._000048.D3PD.root
root://eosatlas//eos//atlas/atlascerngroupdisk/det-slhc/SCOPING/group.det-slhc.mc12_14TeV.147807.PowhegPythia8_AU2CT10_Zmumu.recon.ESD.e1564_s1762_s1777_r6030.v2.trkD3PD_EXT0.29489920/group.det-slhc.5557666.EXT0._000049.D3PD.root
root://eosatlas//eos//atlas/atlascerngroupdisk/det-slhc/SCOPING/group.det-slhc.mc12_14TeV.147807.PowhegPythia8_AU2CT10_Zmumu.recon.ESD.e1564_s1762_s1777_r6030.v2.trkD3PD_EXT0.29489920/group.det-slhc.5557666.EXT0._000050.D3PD.root
root://eosatlas//eos//atlas/atlascerngroupdisk/det-slhc/SCOPING/group.det-slhc.mc12_14TeV.147807.PowhegPythia8_AU2CT10_Zmumu.recon.ESD.e1564_s1762_s1777_r6030.v2.trkD3PD_EXT0.29489920/group.det-slhc.5557666.EXT0._000051.D3PD.root
root://eosatlas//eos//atlas/atlascerngroupdisk/det-slhc/SCOPING/group.det-slhc.mc12_14TeV.147807.PowhegPythia8_AU2CT10_Zmumu.recon.ESD.e1564_s1762_s1777_r6030.v2.trkD3PD_EXT0.29489920/group.det-slhc.5557666.EXT0._000052.D3PD.root
root://eosatlas//eos//atlas/atlascerngroupdisk/det-slhc/SCOPING/group.det-slhc.mc12_14TeV.147807.PowhegPythia8_AU2CT10_Zmumu.recon.ESD.e1564_s1762_s1777_r6030.v2.trkD3PD_EXT0.29489920/group.det-slhc.5557666.EXT0._000053.D3PD.root
root://eosatlas//eos//atlas/atlascerngroupdisk/det-slhc/SCOPING/group.det-slhc.mc12_14TeV.147807.PowhegPythia8_AU2CT10_Zmumu.recon.ESD.e1564_s1762_s1777_r6030.v2.trkD3PD_EXT0.29489920/group.det-slhc.5557666.EXT0._000054.D3PD.root
root://eosatlas//eos//atlas/atlascerngroupdisk/det-slhc/SCOPING/group.det-slhc.mc12_14TeV.147807.PowhegPythia8_AU2CT10_Zmumu.recon.ESD.e1564_s1762_s1777_r6030.v2.trkD3PD_EXT0.29489920/group.det-slhc.5557666.EXT0._000055.D3PD.root
root://eosatlas//eos//atlas/atlascerngroupdisk/det-slhc/SCOPING/group.det-slhc.mc12_14TeV.147807.PowhegPythia8_AU2CT10_Zmumu.recon.ESD.e1564_s1762_s1777_r6030.v2.trkD3PD_EXT0.29489920/group.det-slhc.5557666.EXT0._000056.D3PD.root
root://eosatlas//eos//atlas/atlascerngroupdisk/det-slhc/SCOPING/group.det-slhc.mc12_14TeV.147807.PowhegPythia8_AU2CT10_Zmumu.recon.ESD.e1564_s1762_s1777_r6030.v2.trkD3PD_EXT0.29489920/group.det-slhc.5557666.EXT0._000057.D3PD.root
root://eosatlas//eos//atlas/atlascerngroupdisk/det-slhc/SCOPING/group.det-slhc.mc12_14TeV.147807.PowhegPythia8_AU2CT10_Zmumu.recon.ESD.e1564_s1762_s1777_r6030.v2.trkD3PD_EXT0.29489920/group.det-slhc.5557666.EXT0._000058.D3PD.root
root://eosatlas//eos//atlas/atlascerngroupdisk/det-slhc/SCOPING/group.det-slhc.mc12_14TeV.147807.PowhegPythia8_AU2CT10_Zmumu.recon.ESD.e1564_s1762_s1777_r6030.v2.trkD3PD_EXT0.29489920/group.det-slhc.5557666.EXT0._000059.D3PD.root
root://eosatlas//eos//atlas/atlascerngroupdisk/det-slhc/SCOPING/group.det-slhc.mc12_14TeV.147807.PowhegPythia8_AU2CT10_Zmumu.recon.ESD.e1564_s1762_s1777_r6030.v2.trkD3PD_EXT0.29489920/group.det-slhc.5557666.EXT0._000085.D3PD.root
root://eosatlas//eos//atlas/atlascerngroupdisk/det-slhc/SCOPING/group.det-slhc.mc12_14TeV.147807.PowhegPythia8_AU2CT10_Zmumu.recon.ESD.e1564_s1762_s1777_r6030.v2.trkD3PD_EXT0.29489920/group.det-slhc.5557666.EXT0._000086.D3PD.root
root://eosatlas//eos//atlas/atlascerngroupdisk/det-slhc/SCOPING/group.det-slhc.mc12_14TeV.147807.PowhegPythia8_AU2CT10_Zmumu.recon.ESD.e1564_s1762_s1777_r6030.v2.trkD3PD_EXT0.29489920/group.det-slhc.5557666.EXT0._000087.D3PD.root
root://eosatlas//eos//atlas/atlascerngroupdisk/det-slhc/SCOPING/group.det-slhc.mc12_14TeV.147807.PowhegPythia8_AU2CT10_Zmumu.recon.ESD.e1564_s1762_s1777_r6030.v2.trkD3PD_EXT0.29489920/group.det-slhc.5557666.EXT0._000088.D3PD.root
root://eosatlas//eos//atlas/atlascerngroupdisk/det-slhc/SCOPING/group.det-slhc.mc12_14TeV.147807.PowhegPythia8_AU2CT10_Zmumu.recon.ESD.e1564_s1762_s1777_r6030.v2.trkD3PD_EXT0.29489920/group.det-slhc.5557666.EXT0._000089.D3PD.root
root://eosatlas//eos//atlas/atlascerngroupdisk/det-slhc/SCOPING/group.det-slhc.mc12_14TeV.147807.PowhegPythia8_AU2CT10_Zmumu.recon.ESD.e1564_s1762_s1777_r6030.v2.trkD3PD_EXT0.29489920/group.det-slhc.5557666.EXT0._000090.D3PD.root
root://eosatlas//eos//atlas/atlascerngroupdisk/det-slhc/SCOPING/group.det-slhc.mc12_14TeV.147807.PowhegPythia8_AU2CT10_Zmumu.recon.ESD.e1564_s1762_s1777_r6030.v2.trkD3PD_EXT0.29489920/group.det-slhc.5557666.EXT0._000091.D3PD.root
root://eosatlas//eos//atlas/atlascerngroupdisk/det-slhc/SCOPING/group.det-slhc.mc12_14TeV.147807.PowhegPythia8_AU2CT10_Zmumu.recon.ESD.e1564_s1762_s1777_r6030.v2.trkD3PD_EXT0.29489920/group.det-slhc.5557666.EXT0._000092.D3PD.root
root://eosatlas//eos//atlas/atlascerngroupdisk/det-slhc/SCOPING/group.det-slhc.mc12_14TeV.147807.PowhegPythia8_AU2CT10_Zmumu.recon.ESD.e1564_s1762_s1777_r6030.v2.trkD3PD_EXT0.29489920/group.det-slhc.5557666.EXT0._000093.D3PD.root
root://eosatlas//eos//atlas/atlascerngroupdisk/det-slhc/SCOPING/group.det-slhc.mc12_14TeV.147807.PowhegPythia8_AU2CT10_Zmumu.recon.ESD.e1564_s1762_s1777_r6030.v2.trkD3PD_EXT0.29489920/group.det-slhc.5557666.EXT0._000094.D3PD.root
root://eosatlas//eos//atlas/atlascerngroupdisk/det-slhc/SCOPING/group.det-slhc.mc12_14TeV.147807.PowhegPythia8_AU2CT10_Zmumu.recon.ESD.e1564_s1762_s1777_r6030.v2.trkD3PD_EXT0.29489920/group.det-slhc.5557666.EXT0._000095.D3PD.root
root://eosatlas//eos//atlas/atlascerngroupdisk/det-slhc/SCOPING/group.det-slhc.mc12_14TeV.147807.PowhegPythia8_AU2CT10_Zmumu.recon.ESD.e1564_s1762_s1777_r6030.v2.trkD3PD_EXT0.29489920/group.det-slhc.5557666.EXT0._000096.D3PD.root
root://eosatlas//eos//atlas/atlascerngroupdisk/det-slhc/SCOPING/group.det-slhc.mc12_14TeV.147807.PowhegPythia8_AU2CT10_Zmumu.recon.ESD.e1564_s1762_s1777_r6030.v2.trkD3PD_EXT0.29489920/group.det-slhc.5557666.EXT0._000097.D3PD.root
root://eosatlas//eos//atlas/atlascerngroupdisk/det-slhc/SCOPING/group.det-slhc.mc12_14TeV.147807.PowhegPythia8_AU2CT10_Zmumu.recon.ESD.e1564_s1762_s1777_r6030.v2.trkD3PD_EXT0.29489920/group.det-slhc.5557666.EXT0._000098.D3PD.root
root://eosatlas//eos//atlas/atlascerngroupdisk/det-slhc/SCOPING/group.det-slhc.mc12_14TeV.147807.PowhegPythia8_AU2CT10_Zmumu.recon.ESD.e1564_s1762_s1777_r6030.v2.trkD3PD_EXT0.29489920/group.det-slhc.5557666.EXT0._000099.D3PD.root
root://eosatlas//eos//atlas/atlascerngroupdisk/det-slhc/SCOPING/group.det-slhc.mc12_14TeV.147807.PowhegPythia8_AU2CT10_Zmumu.recon.ESD.e1564_s1762_s1777_r6030.v2.trkD3PD_EXT0.29489920/group.det-slhc.5557666.EXT0._000100.D3PD.root
root://eosatlas//eos//atlas/atlascerngroupdisk/det-slhc/SCOPING/group.det-slhc.mc12_14TeV.147807.PowhegPythia8_AU2CT10_Zmumu.recon.ESD.e1564_s1762_s1777_r6030.v2.trkD3PD_EXT0.29489920/group.det-slhc.5557666.EXT0._000101.D3PD.root
root://eosatlas//eos//atlas/atlascerngroupdisk/det-slhc/SCOPING/group.det-slhc.mc12_14TeV.147807.PowhegPythia8_AU2CT10_Zmumu.recon.ESD.e1564_s1762_s1777_r6030.v2.trkD3PD_EXT0.29489920/group.det-slhc.5557666.EXT0._000102.D3PD.root
root://eosatlas//eos//atlas/atlascerngroupdisk/det-slhc/SCOPING/group.det-slhc.mc12_14TeV.147807.PowhegPythia8_AU2CT10_Zmumu.recon.ESD.e1564_s1762_s1777_r6030.v2.trkD3PD_EXT0.29489920/group.det-slhc.5557666.EXT0._000103.D3PD.root
root://eosatlas//eos//atlas/atlascerngroupdisk/det-slhc/SCOPING/group.det-slhc.mc12_14TeV.147807.PowhegPythia8_AU2CT10_Zmumu.recon.ESD.e1564_s1762_s1777_r6030.v2.trkD3PD_EXT0.29489920/group.det-slhc.5557666.EXT0._000104.D3PD.root
root://eosatlas//eos//atlas/atlascerngroupdisk/det-slhc/SCOPING/group.det-slhc.mc12_14TeV.147807.PowhegPythia8_AU2CT10_Zmumu.recon.ESD.e1564_s1762_s1777_r6030.v2.trkD3PD_EXT0.29489920/group.det-slhc.5557666.EXT0._000105.D3PD.root
root://eosatlas//eos//atlas/atlascerngroupdisk/det-slhc/SCOPING/group.det-slhc.mc12_14TeV.147807.PowhegPythia8_AU2CT10_Zmumu.recon.ESD.e1564_s1762_s1777_r6030.v2.trkD3PD_EXT0.29489920/group.det-slhc.5557666.EXT0._000106.D3PD.root
root://eosatlas//eos//atlas/atlascerngroupdisk/det-slhc/SCOPING/group.det-slhc.mc12_14TeV.147807.PowhegPythia8_AU2CT10_Zmumu.recon.ESD.e1564_s1762_s1777_r6030.v2.trkD3PD_EXT0.29489920/group.det-slhc.5557666.EXT0._000107.D3PD.root
root://eosatlas//eos//atlas/atlascerngroupdisk/det-slhc/SCOPING/group.det-slhc.mc12_14TeV.147807.PowhegPythia8_AU2CT10_Zmumu.recon.ESD.e1564_s1762_s1777_r6030.v2.trkD3PD_EXT0.29489920/group.det-slhc.5557666.EXT0._000108.D3PD.root
root://eosatlas//eos//atlas/atlascerngroupdisk/det-slhc/SCOPING/group.det-slhc.mc12_14TeV.147807.PowhegPythia8_AU2CT10_Zmumu.recon.ESD.e1564_s1762_s1777_r6030.v2.trkD3PD_EXT0.29489920/group.det-slhc.5557666.EXT0._000109.D3PD.root
root://eosatlas//eos//atlas/atlascerngroupdisk/det-slhc/SCOPING/group.det-slhc.mc12_14TeV.147807.PowhegPythia8_AU2CT10_Zmumu.recon.ESD.e1564_s1762_s1777_r6030.v2.trkD3PD_EXT0.29489920/group.det-slhc.5557666.EXT0._000110.D3PD.root
root://eosatlas//eos//atlas/atlascerngroupdisk/det-slhc/SCOPING/group.det-slhc.mc12_14TeV.147807.PowhegPythia8_AU2CT10_Zmumu.recon.ESD.e1564_s1762_s1777_r6030.v2.trkD3PD_EXT0.29489920/group.det-slhc.5557666.EXT0._000111.D3PD.root
root://eosatlas//eos//atlas/atlascerngroupdisk/det-slhc/SCOPING/group.det-slhc.mc12_14TeV.147807.PowhegPythia8_AU2CT10_Zmumu.recon.ESD.e1564_s1762_s1777_r6030.v2.trkD3PD_EXT0.29489920/group.det-slhc.5557666.EXT0._000112.D3PD.root
root://eosatlas//eos//atlas/atlascerngroupdisk/det-slhc/SCOPING/group.det-slhc.mc12_14TeV.147807.PowhegPythia8_AU2CT10_Zmumu.recon.ESD.e1564_s1762_s1777_r6030.v2.trkD3PD_EXT0.29489920/group.det-slhc.5557666.EXT0._000113.D3PD.root
root://eosatlas//eos//atlas/atlascerngroupdisk/det-slhc/SCOPING/group.det-slhc.mc12_14TeV.147807.PowhegPythia8_AU2CT10_Zmumu.recon.ESD.e1564_s1762_s1777_r6030.v2.trkD3PD_EXT0.29489920/group.det-slhc.5557666.EXT0._000114.D3PD.root
root://eosatlas//eos//atlas/atlascerngroupdisk/det-slhc/SCOPING/group.det-slhc.mc12_14TeV.147807.PowhegPythia8_AU2CT10_Zmumu.recon.ESD.e1564_s1762_s1777_r6030.v2.trkD3PD_EXT0.29489920/group.det-slhc.5557666.EXT0._000115.D3PD.root
root://eosatlas//eos//atlas/atlascerngroupdisk/det-slhc/SCOPING/group.det-slhc.mc12_14TeV.147807.PowhegPythia8_AU2CT10_Zmumu.recon.ESD.e1564_s1762_s1777_r6030.v2.trkD3PD_EXT0.29489920/group.det-slhc.5557666.EXT0._000116.D3PD.root
root://eosatlas//eos//atlas/atlascerngroupdisk/det-slhc/SCOPING/group.det-slhc.mc12_14TeV.147807.PowhegPythia8_AU2CT10_Zmumu.recon.ESD.e1564_s1762_s1777_r6030.v2.trkD3PD_EXT0.29489920/group.det-slhc.5557666.EXT0._000117.D3PD.root
root://eosatlas//eos//atlas/atlascerngroupdisk/det-slhc/SCOPING/group.det-slhc.mc12_14TeV.147807.PowhegPythia8_AU2CT10_Zmumu.recon.ESD.e1564_s1762_s1777_r6030.v2.trkD3PD_EXT0.29489920/group.det-slhc.5557666.EXT0._000118.D3PD.root
root://eosatlas//eos//atlas/atlascerngroupdisk/det-slhc/SCOPING/group.det-slhc.mc12_14TeV.147807.PowhegPythia8_AU2CT10_Zmumu.recon.ESD.e1564_s1762_s1777_r6030.v2.trkD3PD_EXT0.29489920/group.det-slhc.5557666.EXT0._000119.D3PD.root
root://eosatlas//eos//atlas/atlascerngroupdisk/det-slhc/SCOPING/group.det-slhc.mc12_14TeV.147807.PowhegPythia8_AU2CT10_Zmumu.recon.ESD.e1564_s1762_s1777_r6030.v2.trkD3PD_EXT0.29489920/group.det-slhc.5557666.EXT0._000120.D3PD.root
root://eosatlas//eos//atlas/atlascerngroupdisk/det-slhc/SCOPING/group.det-slhc.mc12_14TeV.147807.PowhegPythia8_AU2CT10_Zmumu.recon.ESD.e1564_s1762_s1777_r6030.v2.trkD3PD_EXT0.29489920/group.det-slhc.5557666.EXT0._000121.D3PD.root
root://eosatlas//eos//atlas/atlascerngroupdisk/det-slhc/SCOPING/group.det-slhc.mc12_14TeV.147807.PowhegPythia8_AU2CT10_Zmumu.recon.ESD.e1564_s1762_s1777_r6030.v2.trkD3PD_EXT0.29489920/group.det-slhc.5557666.EXT0._000122.D3PD.root
root://eosatlas//eos//atlas/atlascerngroupdisk/det-slhc/SCOPING/group.det-slhc.mc12_14TeV.147807.PowhegPythia8_AU2CT10_Zmumu.recon.ESD.e1564_s1762_s1777_r6030.v2.trkD3PD_EXT0.29489920/group.det-slhc.5557666.EXT0._000123.D3PD.root
root://eosatlas//eos//atlas/atlascerngroupdisk/det-slhc/SCOPING/group.det-slhc.mc12_14TeV.147807.PowhegPythia8_AU2CT10_Zmumu.recon.ESD.e1564_s1762_s1777_r6030.v2.trkD3PD_EXT0.29489920/group.det-slhc.5557666.EXT0._000124.D3PD.root
root://eosatlas//eos//atlas/atlascerngroupdisk/det-slhc/SCOPING/group.det-slhc.mc12_14TeV.147807.PowhegPythia8_AU2CT10_Zmumu.recon.ESD.e1564_s1762_s1777_r6030.v2.trkD3PD_EXT0.29489920/group.det-slhc.5557666.EXT0._000125.D3PD.root
root://eosatlas//eos//atlas/atlascerngroupdisk/det-slhc/SCOPING/group.det-slhc.mc12_14TeV.147807.PowhegPythia8_AU2CT10_Zmumu.recon.ESD.e1564_s1762_s1777_r6030.v2.trkD3PD_EXT0.29489920/group.det-slhc.5557666.EXT0._000126.D3PD.root
root://eosatlas//eos//atlas/atlascerngroupdisk/det-slhc/SCOPING/group.det-slhc.mc12_14TeV.147807.PowhegPythia8_AU2CT10_Zmumu.recon.ESD.e1564_s1762_s1777_r6030.v2.trkD3PD_EXT0.29489920/group.det-slhc.5557666.EXT0._000127.D3PD.root
root://eosatlas//eos//atlas/atlascerngroupdisk/det-slhc/SCOPING/group.det-slhc.mc12_14TeV.147807.PowhegPythia8_AU2CT10_Zmumu.recon.ESD.e1564_s1762_s1777_r6030.v2.trkD3PD_EXT0.29489920/group.det-slhc.5557666.EXT0._000128.D3PD.root
root://eosatlas//eos//atlas/atlascerngroupdisk/det-slhc/SCOPING/group.det-slhc.mc12_14TeV.147807.PowhegPythia8_AU2CT10_Zmumu.recon.ESD.e1564_s1762_s1777_r6030.v2.trkD3PD_EXT0.29489920/group.det-slhc.5557666.EXT0._000129.D3PD.root
root://eosatlas//eos//atlas/atlascerngroupdisk/det-slhc/SCOPING/group.det-slhc.mc12_14TeV.147807.PowhegPythia8_AU2CT10_Zmumu.recon.ESD.e1564_s1762_s1777_r6030.v2.trkD3PD_EXT0.29489920/group.det-slhc.5557666.EXT0._000130.D3PD.root
root://eosatlas//eos//atlas/atlascerngroupdisk/det-slhc/SCOPING/group.det-slhc.mc12_14TeV.147807.PowhegPythia8_AU2CT10_Zmumu.recon.ESD.e1564_s1762_s1777_r6030.v2.trkD3PD_EXT0.29489920/group.det-slhc.5557666.EXT0._000131.D3PD.root
root://eosatlas//eos//atlas/atlascerngroupdisk/det-slhc/SCOPING/group.det-slhc.mc12_14TeV.147807.PowhegPythia8_AU2CT10_Zmumu.recon.ESD.e1564_s1762_s1777_r6030.v2.trkD3PD_EXT0.29489920/group.det-slhc.5557666.EXT0._000132.D3PD.root
root://eosatlas//eos//atlas/atlascerngroupdisk/det-slhc/SCOPING/group.det-slhc.mc12_14TeV.147807.PowhegPythia8_AU2CT10_Zmumu.recon.ESD.e1564_s1762_s1777_r6030.v2.trkD3PD_EXT0.29489920/group.det-slhc.5557666.EXT0._000133.D3PD.root
root://eosatlas//eos//atlas/atlascerngroupdisk/det-slhc/SCOPING/group.det-slhc.mc12_14TeV.147807.PowhegPythia8_AU2CT10_Zmumu.recon.ESD.e1564_s1762_s1777_r6030.v2.trkD3PD_EXT0.29486363/group.det-slhc.5557666.EXT0._000001.D3PD.root
root://eosatlas//eos//atlas/atlascerngroupdisk/det-slhc/SCOPING/group.det-slhc.mc12_14TeV.147807.PowhegPythia8_AU2CT10_Zmumu.recon.ESD.e1564_s1762_s1777_r6030.v2.trkD3PD_EXT0.29486363/group.det-slhc.5557666.EXT0._000002.D3PD.root
root://eosatlas//eos//atlas/atlascerngroupdisk/det-slhc/SCOPING/group.det-slhc.mc12_14TeV.147807.PowhegPythia8_AU2CT10_Zmumu.recon.ESD.e1564_s1762_s1777_r6030.v2.trkD3PD_EXT0.29486363/group.det-slhc.5557666.EXT0._000003.D3PD.root
root://eosatlas//eos//atlas/atlascerngroupdisk/det-slhc/SCOPING/group.det-slhc.mc12_14TeV.147807.PowhegPythia8_AU2CT10_Zmumu.recon.ESD.e1564_s1762_s1777_r6030.v2.trkD3PD_EXT0.29486363/group.det-slhc.5557666.EXT0._000004.D3PD.root
root://eosatlas//eos//atlas/atlascerngroupdisk/det-slhc/SCOPING/group.det-slhc.mc12_14TeV.147807.PowhegPythia8_AU2CT10_Zmumu.recon.ESD.e1564_s1762_s1777_r6030.v2.trkD3PD_EXT0.29486363/group.det-slhc.5557666.EXT0._000005.D3PD.root
root://eosatlas//eos//atlas/atlascerngroupdisk/det-slhc/SCOPING/group.det-slhc.mc12_14TeV.147807.PowhegPythia8_AU2CT10_Zmumu.recon.ESD.e1564_s1762_s1777_r6030.v2.trkD3PD_EXT0.29486363/group.det-slhc.5557666.EXT0._000006.D3PD.root
root://eosatlas//eos//atlas/atlascerngroupdisk/det-slhc/SCOPING/group.det-slhc.mc12_14TeV.147807.PowhegPythia8_AU2CT10_Zmumu.recon.ESD.e1564_s1762_s1777_r6030.v2.trkD3PD_EXT0.29486363/group.det-slhc.5557666.EXT0._000007.D3PD.root
root://eosatlas//eos//atlas/atlascerngroupdisk/det-slhc/SCOPING/group.det-slhc.mc12_14TeV.147807.PowhegPythia8_AU2CT10_Zmumu.recon.ESD.e1564_s1762_s1777_r6030.v2.trkD3PD_EXT0.29486363/group.det-slhc.5557666.EXT0._000008.D3PD.root
root://eosatlas//eos//atlas/atlascerngroupdisk/det-slhc/SCOPING/group.det-slhc.mc12_14TeV.147807.PowhegPythia8_AU2CT10_Zmumu.recon.ESD.e1564_s1762_s1777_r6030.v2.trkD3PD_EXT0.29486363/group.det-slhc.5557666.EXT0._000009.D3PD.root
root://eosatlas//eos//atlas/atlascerngroupdisk/det-slhc/SCOPING/group.det-slhc.mc12_14TeV.147807.PowhegPythia8_AU2CT10_Zmumu.recon.ESD.e1564_s1762_s1777_r6030.v2.trkD3PD_EXT0.29486363/group.det-slhc.5557666.EXT0._000010.D3PD.root
root://eosatlas//eos//atlas/atlascerngroupdisk/det-slhc/SCOPING/group.det-slhc.mc12_14TeV.147807.PowhegPythia8_AU2CT10_Zmumu.recon.ESD.e1564_s1762_s1777_r6030.v2.trkD3PD_EXT0.29486363/group.det-slhc.5557666.EXT0._000011.D3PD.root
root://eosatlas//eos//atlas/atlascerngroupdisk/det-slhc/SCOPING/group.det-slhc.mc12_14TeV.147807.PowhegPythia8_AU2CT10_Zmumu.recon.ESD.e1564_s1762_s1777_r6030.v2.trkD3PD_EXT0.29486363/group.det-slhc.5557666.EXT0._000012.D3PD.root
root://eosatlas//eos//atlas/atlascerngroupdisk/det-slhc/SCOPING/group.det-slhc.mc12_14TeV.147807.PowhegPythia8_AU2CT10_Zmumu.recon.ESD.e1564_s1762_s1777_r6030.v2.trkD3PD_EXT0.29486363/group.det-slhc.5557666.EXT0._000013.D3PD.root
root://eosatlas//eos//atlas/atlascerngroupdisk/det-slhc/SCOPING/group.det-slhc.mc12_14TeV.147807.PowhegPythia8_AU2CT10_Zmumu.recon.ESD.e1564_s1762_s1777_r6030.v2.trkD3PD_EXT0.29486363/group.det-slhc.5557666.EXT0._000014.D3PD.root
root://eosatlas//eos//atlas/atlascerngroupdisk/det-slhc/SCOPING/group.det-slhc.mc12_14TeV.147807.PowhegPythia8_AU2CT10_Zmumu.recon.ESD.e1564_s1762_s1777_r6030.v2.trkD3PD_EXT0.29486363/group.det-slhc.5557666.EXT0._000015.D3PD.root
root://eosatlas//eos//atlas/atlascerngroupdisk/det-slhc/SCOPING/group.det-slhc.mc12_14TeV.147807.PowhegPythia8_AU2CT10_Zmumu.recon.ESD.e1564_s1762_s1777_r6030.v2.trkD3PD_EXT0.29486363/group.det-slhc.5557666.EXT0._000016.D3PD.root
root://eosatlas//eos//atlas/atlascerngroupdisk/det-slhc/SCOPING/group.det-slhc.mc12_14TeV.147807.PowhegPythia8_AU2CT10_Zmumu.recon.ESD.e1564_s1762_s1777_r6030.v2.trkD3PD_EXT0.29486363/group.det-slhc.5557666.EXT0._000017.D3PD.root
root://eosatlas//eos//atlas/atlascerngroupdisk/det-slhc/SCOPING/group.det-slhc.mc12_14TeV.147807.PowhegPythia8_AU2CT10_Zmumu.recon.ESD.e1564_s1762_s1777_r6030.v2.trkD3PD_EXT0.29486363/group.det-slhc.5557666.EXT0._000018.D3PD.root
root://eosatlas//eos//atlas/atlascerngroupdisk/det-slhc/SCOPING/group.det-slhc.mc12_14TeV.147807.PowhegPythia8_AU2CT10_Zmumu.recon.ESD.e1564_s1762_s1777_r6030.v2.trkD3PD_EXT0.29486363/group.det-slhc.5557666.EXT0._000019.D3PD.root
root://eosatlas//eos//atlas/atlascerngroupdisk/det-slhc/SCOPING/group.det-slhc.mc12_14TeV.147807.PowhegPythia8_AU2CT10_Zmumu.recon.ESD.e1564_s1762_s1777_r6030.v2.trkD3PD_EXT0.29486363/group.det-slhc.5557666.EXT0._000020.D3PD.root
root://eosatlas//eos//atlas/atlascerngroupdisk/det-slhc/SCOPING/group.det-slhc.mc12_14TeV.147807.PowhegPythia8_AU2CT10_Zmumu.recon.ESD.e1564_s1762_s1777_r6030.v2.trkD3PD_EXT0.29486363/group.det-slhc.5557666.EXT0._000021.D3PD.root
root://eosatlas//eos//atlas/atlascerngroupdisk/det-slhc/SCOPING/group.det-slhc.mc12_14TeV.147807.PowhegPythia8_AU2CT10_Zmumu.recon.ESD.e1564_s1762_s1777_r6030.v2.trkD3PD_EXT0.29486363/group.det-slhc.5557666.EXT0._000022.D3PD.root
root://eosatlas//eos//atlas/atlascerngroupdisk/det-slhc/SCOPING/group.det-slhc.mc12_14TeV.147807.PowhegPythia8_AU2CT10_Zmumu.recon.ESD.e1564_s1762_s1777_r6030.v2.trkD3PD_EXT0.29486363/group.det-slhc.5557666.EXT0._000023.D3PD.root
root://eosatlas//eos//atlas/atlascerngroupdisk/det-slhc/SCOPING/group.det-slhc.mc12_14TeV.147807.PowhegPythia8_AU2CT10_Zmumu.recon.ESD.e1564_s1762_s1777_r6030.v2.trkD3PD_EXT0.29486363/group.det-slhc.5557666.EXT0._000024.D3PD.root
root://eosatlas//eos//atlas/atlascerngroupdisk/det-slhc/SCOPING/group.det-slhc.mc12_14TeV.147807.PowhegPythia8_AU2CT10_Zmumu.recon.ESD.e1564_s1762_s1777_r6030.v2.trkD3PD_EXT0.29486363/group.det-slhc.5557666.EXT0._000025.D3PD.root
root://eosatlas//eos//atlas/atlascerngroupdisk/det-slhc/SCOPING/group.det-slhc.mc12_14TeV.147807.PowhegPythia8_AU2CT10_Zmumu.recon.ESD.e1564_s1762_s1777_r6030.v2.trkD3PD_EXT0.29486363/group.det-slhc.5557666.EXT0._000026.D3PD.root
root://eosatlas//eos//atlas/atlascerngroupdisk/det-slhc/SCOPING/group.det-slhc.mc12_14TeV.147807.PowhegPythia8_AU2CT10_Zmumu.recon.ESD.e1564_s1762_s1777_r6030.v2.trkD3PD_EXT0.29486363/group.det-slhc.5557666.EXT0._000027.D3PD.root
root://eosatlas//eos//atlas/atlascerngroupdisk/det-slhc/SCOPING/group.det-slhc.mc12_14TeV.147807.PowhegPythia8_AU2CT10_Zmumu.recon.ESD.e1564_s1762_s1777_r6030.v2.trkD3PD_EXT0.29486363/group.det-slhc.5557666.EXT0._000028.D3PD.root
root://eosatlas//eos//atlas/atlascerngroupdisk/det-slhc/SCOPING/group.det-slhc.mc12_14TeV.147807.PowhegPythia8_AU2CT10_Zmumu.recon.ESD.e1564_s1762_s1777_r6030.v2.trkD3PD_EXT0.29486363/group.det-slhc.5557666.EXT0._000029.D3PD.root
root://eosatlas//eos//atlas/atlascerngroupdisk/det-slhc/SCOPING/group.det-slhc.mc12_14TeV.147807.PowhegPythia8_AU2CT10_Zmumu.recon.ESD.e1564_s1762_s1777_r6030.v2.trkD3PD_EXT0.29486363/group.det-slhc.5557666.EXT0._000030.D3PD.root
root://eosatlas//eos//atlas/atlascerngroupdisk/det-slhc/SCOPING/group.det-slhc.mc12_14TeV.147807.PowhegPythia8_AU2CT10_Zmumu.recon.ESD.e1564_s1762_s1777_r6030.v2.trkD3PD_EXT0.29486363/group.det-slhc.5557666.EXT0._000031.D3PD.root
root://eosatlas//eos//atlas/atlascerngroupdisk/det-slhc/SCOPING/group.det-slhc.mc12_14TeV.147807.PowhegPythia8_AU2CT10_Zmumu.recon.ESD.e1564_s1762_s1777_r6030.v2.trkD3PD_EXT0.29486363/group.det-slhc.5557666.EXT0._000032.D3PD.root
root://eosatlas//eos//atlas/atlascerngroupdisk/det-slhc/SCOPING/group.det-slhc.mc12_14TeV.147807.PowhegPythia8_AU2CT10_Zmumu.recon.ESD.e1564_s1762_s1777_r6030.v2.trkD3PD_EXT0.29486363/group.det-slhc.5557666.EXT0._000033.D3PD.root
root://eosatlas//eos//atlas/atlascerngroupdisk/det-slhc/SCOPING/group.det-slhc.mc12_14TeV.147807.PowhegPythia8_AU2CT10_Zmumu.recon.ESD.e1564_s1762_s1777_r6030.v2.trkD3PD_EXT0.29486363/group.det-slhc.5557666.EXT0._000034.D3PD.root
root://eosatlas//eos//atlas/atlascerngroupdisk/det-slhc/SCOPING/group.det-slhc.mc12_14TeV.147807.PowhegPythia8_AU2CT10_Zmumu.recon.ESD.e1564_s1762_s1777_r6030.v2.trkD3PD_EXT0.29486363/group.det-slhc.5557666.EXT0._000035.D3PD.root
root://eosatlas//eos//atlas/atlascerngroupdisk/det-slhc/SCOPING/group.det-slhc.mc12_14TeV.147807.PowhegPythia8_AU2CT10_Zmumu.recon.ESD.e1564_s1762_s1777_r6030.v2.trkD3PD_EXT0.29486363/group.det-slhc.5557666.EXT0._000060.D3PD.root
root://eosatlas//eos//atlas/atlascerngroupdisk/det-slhc/SCOPING/group.det-slhc.mc12_14TeV.147807.PowhegPythia8_AU2CT10_Zmumu.recon.ESD.e1564_s1762_s1777_r6030.v2.trkD3PD_EXT0.29486363/group.det-slhc.5557666.EXT0._000061.D3PD.root
root://eosatlas//eos//atlas/atlascerngroupdisk/det-slhc/SCOPING/group.det-slhc.mc12_14TeV.147807.PowhegPythia8_AU2CT10_Zmumu.recon.ESD.e1564_s1762_s1777_r6030.v2.trkD3PD_EXT0.29486363/group.det-slhc.5557666.EXT0._000062.D3PD.root
root://eosatlas//eos//atlas/atlascerngroupdisk/det-slhc/SCOPING/group.det-slhc.mc12_14TeV.147807.PowhegPythia8_AU2CT10_Zmumu.recon.ESD.e1564_s1762_s1777_r6030.v2.trkD3PD_EXT0.29486363/group.det-slhc.5557666.EXT0._000063.D3PD.root
root://eosatlas//eos//atlas/atlascerngroupdisk/det-slhc/SCOPING/group.det-slhc.mc12_14TeV.147807.PowhegPythia8_AU2CT10_Zmumu.recon.ESD.e1564_s1762_s1777_r6030.v2.trkD3PD_EXT0.29486363/group.det-slhc.5557666.EXT0._000064.D3PD.root
root://eosatlas//eos//atlas/atlascerngroupdisk/det-slhc/SCOPING/group.det-slhc.mc12_14TeV.147807.PowhegPythia8_AU2CT10_Zmumu.recon.ESD.e1564_s1762_s1777_r6030.v2.trkD3PD_EXT0.29486363/group.det-slhc.5557666.EXT0._000065.D3PD.root
root://eosatlas//eos//atlas/atlascerngroupdisk/det-slhc/SCOPING/group.det-slhc.mc12_14TeV.147807.PowhegPythia8_AU2CT10_Zmumu.recon.ESD.e1564_s1762_s1777_r6030.v2.trkD3PD_EXT0.29486363/group.det-slhc.5557666.EXT0._000066.D3PD.root
root://eosatlas//eos//atlas/atlascerngroupdisk/det-slhc/SCOPING/group.det-slhc.mc12_14TeV.147807.PowhegPythia8_AU2CT10_Zmumu.recon.ESD.e1564_s1762_s1777_r6030.v2.trkD3PD_EXT0.29486363/group.det-slhc.5557666.EXT0._000067.D3PD.root
root://eosatlas//eos//atlas/atlascerngroupdisk/det-slhc/SCOPING/group.det-slhc.mc12_14TeV.147807.PowhegPythia8_AU2CT10_Zmumu.recon.ESD.e1564_s1762_s1777_r6030.v2.trkD3PD_EXT0.29486363/group.det-slhc.5557666.EXT0._000068.D3PD.root
root://eosatlas//eos//atlas/atlascerngroupdisk/det-slhc/SCOPING/group.det-slhc.mc12_14TeV.147807.PowhegPythia8_AU2CT10_Zmumu.recon.ESD.e1564_s1762_s1777_r6030.v2.trkD3PD_EXT0.29486363/group.det-slhc.5557666.EXT0._000069.D3PD.root
root://eosatlas//eos//atlas/atlascerngroupdisk/det-slhc/SCOPING/group.det-slhc.mc12_14TeV.147807.PowhegPythia8_AU2CT10_Zmumu.recon.ESD.e1564_s1762_s1777_r6030.v2.trkD3PD_EXT0.29486363/group.det-slhc.5557666.EXT0._000070.D3PD.root
root://eosatlas//eos//atlas/atlascerngroupdisk/det-slhc/SCOPING/group.det-slhc.mc12_14TeV.147807.PowhegPythia8_AU2CT10_Zmumu.recon.ESD.e1564_s1762_s1777_r6030.v2.trkD3PD_EXT0.29486363/group.det-slhc.5557666.EXT0._000071.D3PD.root
root://eosatlas//eos//atlas/atlascerngroupdisk/det-slhc/SCOPING/group.det-slhc.mc12_14TeV.147807.PowhegPythia8_AU2CT10_Zmumu.recon.ESD.e1564_s1762_s1777_r6030.v2.trkD3PD_EXT0.29486363/group.det-slhc.5557666.EXT0._000072.D3PD.root
root://eosatlas//eos//atlas/atlascerngroupdisk/det-slhc/SCOPING/group.det-slhc.mc12_14TeV.147807.PowhegPythia8_AU2CT10_Zmumu.recon.ESD.e1564_s1762_s1777_r6030.v2.trkD3PD_EXT0.29486363/group.det-slhc.5557666.EXT0._000073.D3PD.root
root://eosatlas//eos//atlas/atlascerngroupdisk/det-slhc/SCOPING/group.det-slhc.mc12_14TeV.147807.PowhegPythia8_AU2CT10_Zmumu.recon.ESD.e1564_s1762_s1777_r6030.v2.trkD3PD_EXT0.29486363/group.det-slhc.5557666.EXT0._000074.D3PD.root
root://eosatlas//eos//atlas/atlascerngroupdisk/det-slhc/SCOPING/group.det-slhc.mc12_14TeV.147807.PowhegPythia8_AU2CT10_Zmumu.recon.ESD.e1564_s1762_s1777_r6030.v2.trkD3PD_EXT0.29486363/group.det-slhc.5557666.EXT0._000075.D3PD.root
root://eosatlas//eos//atlas/atlascerngroupdisk/det-slhc/SCOPING/group.det-slhc.mc12_14TeV.147807.PowhegPythia8_AU2CT10_Zmumu.recon.ESD.e1564_s1762_s1777_r6030.v2.trkD3PD_EXT0.29486363/group.det-slhc.5557666.EXT0._000076.D3PD.root
root://eosatlas//eos//atlas/atlascerngroupdisk/det-slhc/SCOPING/group.det-slhc.mc12_14TeV.147807.PowhegPythia8_AU2CT10_Zmumu.recon.ESD.e1564_s1762_s1777_r6030.v2.trkD3PD_EXT0.29486363/group.det-slhc.5557666.EXT0._000077.D3PD.root
root://eosatlas//eos//atlas/atlascerngroupdisk/det-slhc/SCOPING/group.det-slhc.mc12_14TeV.147807.PowhegPythia8_AU2CT10_Zmumu.recon.ESD.e1564_s1762_s1777_r6030.v2.trkD3PD_EXT0.29486363/group.det-slhc.5557666.EXT0._000078.D3PD.root
root://eosatlas//eos//atlas/atlascerngroupdisk/det-slhc/SCOPING/group.det-slhc.mc12_14TeV.147807.PowhegPythia8_AU2CT10_Zmumu.recon.ESD.e1564_s1762_s1777_r6030.v2.trkD3PD_EXT0.29486363/group.det-slhc.5557666.EXT0._000079.D3PD.root
root://eosatlas//eos//atlas/atlascerngroupdisk/det-slhc/SCOPING/group.det-slhc.mc12_14TeV.147807.PowhegPythia8_AU2CT10_Zmumu.recon.ESD.e1564_s1762_s1777_r6030.v2.trkD3PD_EXT0.29486363/group.det-slhc.5557666.EXT0._000080.D3PD.root
root://eosatlas//eos//atlas/atlascerngroupdisk/det-slhc/SCOPING/group.det-slhc.mc12_14TeV.147807.PowhegPythia8_AU2CT10_Zmumu.recon.ESD.e1564_s1762_s1777_r6030.v2.trkD3PD_EXT0.29486363/group.det-slhc.5557666.EXT0._000081.D3PD.root
root://eosatlas//eos//atlas/atlascerngroupdisk/det-slhc/SCOPING/group.det-slhc.mc12_14TeV.147807.PowhegPythia8_AU2CT10_Zmumu.recon.ESD.e1564_s1762_s1777_r6030.v2.trkD3PD_EXT0.29486363/group.det-slhc.5557666.EXT0._000082.D3PD.root
root://eosatlas//eos//atlas/atlascerngroupdisk/det-slhc/SCOPING/group.det-slhc.mc12_14TeV.147807.PowhegPythia8_AU2CT10_Zmumu.recon.ESD.e1564_s1762_s1777_r6030.v2.trkD3PD_EXT0.29486363/group.det-slhc.5557666.EXT0._000083.D3PD.root
root://eosatlas//eos//atlas/atlascerngroupdisk/det-slhc/SCOPING/group.det-slhc.mc12_14TeV.147807.PowhegPythia8_AU2CT10_Zmumu.recon.ESD.e1564_s1762_s1777_r6030.v2.trkD3PD_EXT0.29486363/group.det-slhc.5557666.EXT0._000084.D3PD.root
root://eosatlas//eos//atlas/atlascerngroupdisk/det-slhc/SCOPING/group.det-slhc.mc12_14TeV.147807.PowhegPythia8_AU2CT10_Zmumu.recon.ESD.e1564_s1762_s1777_r6030.v2.trkD3PD_EXT0.29486363/group.det-slhc.5557666.EXT0._000134.D3PD.root
root://eosatlas//eos//atlas/atlascerngroupdisk/det-slhc/SCOPING/group.det-slhc.mc12_14TeV.147807.PowhegPythia8_AU2CT10_Zmumu.recon.ESD.e1564_s1762_s1777_r6030.v2.trkD3PD_EXT0.29486363/group.det-slhc.5557666.EXT0._000135.D3PD.root
root://eosatlas//eos//atlas/atlascerngroupdisk/det-slhc/SCOPING/group.det-slhc.mc12_14TeV.147807.PowhegPythia8_AU2CT10_Zmumu.recon.ESD.e1564_s1762_s1777_r6030.v2.trkD3PD_EXT0.29486363/group.det-slhc.5557666.EXT0._000136.D3PD.root
root://eosatlas//eos//atlas/atlascerngroupdisk/det-slhc/SCOPING/group.det-slhc.mc12_14TeV.147807.PowhegPythia8_AU2CT10_Zmumu.recon.ESD.e1564_s1762_s1777_r6030.v2.trkD3PD_EXT0.29486363/group.det-slhc.5557666.EXT0._000137.D3PD.root
root://eosatlas//eos//atlas/atlascerngroupdisk/det-slhc/SCOPING/group.det-slhc.mc12_14TeV.147807.PowhegPythia8_AU2CT10_Zmumu.recon.ESD.e1564_s1762_s1777_r6030.v2.trkD3PD_EXT0.29486363/group.det-slhc.5557666.EXT0._000138.D3PD.root
root://eosatlas//eos//atlas/atlascerngroupdisk/det-slhc/SCOPING/group.det-slhc.mc12_14TeV.147807.PowhegPythia8_AU2CT10_Zmumu.recon.ESD.e1564_s1762_s1777_r6030.v2.trkD3PD_EXT0.29486363/group.det-slhc.5557666.EXT0._000139.D3PD.root
root://eosatlas//eos//atlas/atlascerngroupdisk/det-slhc/SCOPING/group.det-slhc.mc12_14TeV.147807.PowhegPythia8_AU2CT10_Zmumu.recon.ESD.e1564_s1762_s1777_r6030.v2.trkD3PD_EXT0.29486363/group.det-slhc.5557666.EXT0._000140.D3PD.root
root://eosatlas//eos//atlas/atlascerngroupdisk/det-slhc/SCOPING/group.det-slhc.mc12_14TeV.147807.PowhegPythia8_AU2CT10_Zmumu.recon.ESD.e1564_s1762_s1777_r6030.v2.trkD3PD_EXT0.29486363/group.det-slhc.5557666.EXT0._000141.D3PD.root
root://eosatlas//eos//atlas/atlascerngroupdisk/det-slhc/SCOPING/group.det-slhc.mc12_14TeV.147807.PowhegPythia8_AU2CT10_Zmumu.recon.ESD.e1564_s1762_s1777_r6030.v2.trkD3PD_EXT0.29486363/group.det-slhc.5557666.EXT0._000142.D3PD.root
root://eosatlas//eos//atlas/atlascerngroupdisk/det-slhc/SCOPING/group.det-slhc.mc12_14TeV.147807.PowhegPythia8_AU2CT10_Zmumu.recon.ESD.e1564_s1762_s1777_r6030.v2.trkD3PD_EXT0.29486363/group.det-slhc.5557666.EXT0._000143.D3PD.root
root://eosatlas//eos//atlas/atlascerngroupdisk/det-slhc/SCOPING/group.det-slhc.mc12_14TeV.147807.PowhegPythia8_AU2CT10_Zmumu.recon.ESD.e1564_s1762_s1777_r6030.v2.trkD3PD_EXT0.29486363/group.det-slhc.5557666.EXT0._000144.D3PD.root
root://eosatlas//eos//atlas/atlascerngroupdisk/det-slhc/SCOPING/group.det-slhc.mc12_14TeV.147807.PowhegPythia8_AU2CT10_Zmumu.recon.ESD.e1564_s1762_s1777_r6030.v2.trkD3PD_EXT0.29486363/group.det-slhc.5557666.EXT0._000145.D3PD.root
root://eosatlas//eos//atlas/atlascerngroupdisk/det-slhc/SCOPING/group.det-slhc.mc12_14TeV.147807.PowhegPythia8_AU2CT10_Zmumu.recon.ESD.e1564_s1762_s1777_r6030.v2.trkD3PD_EXT0.29486363/group.det-slhc.5557666.EXT0._000146.D3PD.root
root://eosatlas//eos//atlas/atlascerngroupdisk/det-slhc/SCOPING/group.det-slhc.mc12_14TeV.147807.PowhegPythia8_AU2CT10_Zmumu.recon.ESD.e1564_s1762_s1777_r6030.v2.trkD3PD_EXT0.29486363/group.det-slhc.5557666.EXT0._000147.D3PD.root
root://eosatlas//eos//atlas/atlascerngroupdisk/det-slhc/SCOPING/group.det-slhc.mc12_14TeV.147807.PowhegPythia8_AU2CT10_Zmumu.recon.ESD.e1564_s1762_s1777_r6030.v2.trkD3PD_EXT0.29486363/group.det-slhc.5557666.EXT0._000148.D3PD.root
root://eosatlas//eos//atlas/atlascerngroupdisk/det-slhc/SCOPING/group.det-slhc.mc12_14TeV.147807.PowhegPythia8_AU2CT10_Zmumu.recon.ESD.e1564_s1762_s1777_r6030.v2.trkD3PD_EXT0.29486363/group.det-slhc.5557666.EXT0._000149.D3PD.root
root://eosatlas//eos//atlas/atlascerngroupdisk/det-slhc/SCOPING/group.det-slhc.mc12_14TeV.147807.PowhegPythia8_AU2CT10_Zmumu.recon.ESD.e1564_s1762_s1777_r6030.v2.trkD3PD_EXT0.29486363/group.det-slhc.5557666.EXT0._000150.D3PD.root
root://eosatlas//eos//atlas/atlascerngroupdisk/det-slhc/SCOPING/group.det-slhc.mc12_14TeV.147807.PowhegPythia8_AU2CT10_Zmumu.recon.ESD.e1564_s1762_s1777_r6030.v2.trkD3PD_EXT0.29486363/group.det-slhc.5557666.EXT0._000151.D3PD.root
root://eosatlas//eos//atlas/atlascerngroupdisk/det-slhc/SCOPING/group.det-slhc.mc12_14TeV.147807.PowhegPythia8_AU2CT10_Zmumu.recon.ESD.e1564_s1762_s1777_r6030.v2.trkD3PD_EXT0.29486363/group.det-slhc.5557666.EXT0._000152.D3PD.root
root://eosatlas//eos//atlas/atlascerngroupdisk/det-slhc/SCOPING/group.det-slhc.mc12_14TeV.147807.PowhegPythia8_AU2CT10_Zmumu.recon.ESD.e1564_s1762_s1777_r6030.v2.trkD3PD_EXT0.29486363/group.det-slhc.5557666.EXT0._000153.D3PD.root
root://eosatlas//eos//atlas/atlascerngroupdisk/det-slhc/SCOPING/group.det-slhc.mc12_14TeV.147807.PowhegPythia8_AU2CT10_Zmumu.recon.ESD.e1564_s1762_s1777_r6030.v2.trkD3PD_EXT0.29486363/group.det-slhc.5557666.EXT0._000154.D3PD.root
root://eosatlas//eos//atlas/atlascerngroupdisk/det-slhc/SCOPING/group.det-slhc.mc12_14TeV.147807.PowhegPythia8_AU2CT10_Zmumu.recon.ESD.e1564_s1762_s1777_r6030.v2.trkD3PD_EXT0.29486363/group.det-slhc.5557666.EXT0._000155.D3PD.root
root://eosatlas//eos//atlas/atlascerngroupdisk/det-slhc/SCOPING/group.det-slhc.mc12_14TeV.147807.PowhegPythia8_AU2CT10_Zmumu.recon.ESD.e1564_s1762_s1777_r6030.v2.trkD3PD_EXT0.29486363/group.det-slhc.5557666.EXT0._000156.D3PD.root
root://eosatlas//eos//atlas/atlascerngroupdisk/det-slhc/SCOPING/group.det-slhc.mc12_14TeV.147807.PowhegPythia8_AU2CT10_Zmumu.recon.ESD.e1564_s1762_s1777_r6030.v2.trkD3PD_EXT0.29486363/group.det-slhc.5557666.EXT0._000157.D3PD.root
root://eosatlas//eos//atlas/atlascerngroupdisk/det-slhc/SCOPING/group.det-slhc.mc12_14TeV.147807.PowhegPythia8_AU2CT10_Zmumu.recon.ESD.e1564_s1762_s1777_r6030.v2.trkD3PD_EXT0.29486363/group.det-slhc.5557666.EXT0._000158.D3PD.root
root://eosatlas//eos//atlas/atlascerngroupdisk/det-slhc/SCOPING/group.det-slhc.mc12_14TeV.147807.PowhegPythia8_AU2CT10_Zmumu.recon.ESD.e1564_s1762_s1777_r6030.v2.trkD3PD_EXT0.29486363/group.det-slhc.5557666.EXT0._000159.D3PD.root
root://eosatlas//eos//atlas/atlascerngroupdisk/det-slhc/SCOPING/group.det-slhc.mc12_14TeV.147807.PowhegPythia8_AU2CT10_Zmumu.recon.ESD.e1564_s1762_s1777_r6030.v2.trkD3PD_EXT0.29486363/group.det-slhc.5557666.EXT0._000160.D3PD.root
root://eosatlas//eos//atlas/atlascerngroupdisk/det-slhc/SCOPING/group.det-slhc.mc12_14TeV.147807.PowhegPythia8_AU2CT10_Zmumu.recon.ESD.e1564_s1762_s1777_r6030.v2.trkD3PD_EXT0.29486363/group.det-slhc.5557666.EXT0._000161.D3PD.root
root://eosatlas//eos//atlas/atlascerngroupdisk/det-slhc/SCOPING/group.det-slhc.mc12_14TeV.147807.PowhegPythia8_AU2CT10_Zmumu.recon.ESD.e1564_s1762_s1777_r6030.v2.trkD3PD_EXT0.29486363/group.det-slhc.5557666.EXT0._000162.D3PD.root
root://eosatlas//eos//atlas/atlascerngroupdisk/det-slhc/SCOPING/group.det-slhc.mc12_14TeV.147807.PowhegPythia8_AU2CT10_Zmumu.recon.ESD.e1564_s1762_s1777_r6030.v2.trkD3PD_EXT0.29486363/group.det-slhc.5557666.EXT0._000163.D3PD.root
root://eosatlas//eos//atlas/atlascerngroupdisk/det-slhc/SCOPING/group.det-slhc.mc12_14TeV.147807.PowhegPythia8_AU2CT10_Zmumu.recon.ESD.e1564_s1762_s1777_r6030.v2.trkD3PD_EXT0.29486363/group.det-slhc.5557666.EXT0._000164.D3PD.root
root://eosatlas//eos//atlas/atlascerngroupdisk/det-slhc/SCOPING/group.det-slhc.mc12_14TeV.147807.PowhegPythia8_AU2CT10_Zmumu.recon.ESD.e1564_s1762_s1777_r6030.v2.trkD3PD_EXT0.29486363/group.det-slhc.5557666.EXT0._000165.D3PD.root
root://eosatlas//eos//atlas/atlascerngroupdisk/det-slhc/SCOPING/group.det-slhc.mc12_14TeV.147807.PowhegPythia8_AU2CT10_Zmumu.recon.ESD.e1564_s1762_s1777_r6030.v2.trkD3PD_EXT0.29486363/group.det-slhc.5557666.EXT0._000166.D3PD.root
root://eosatlas//eos//atlas/atlascerngroupdisk/det-slhc/SCOPING/group.det-slhc.mc12_14TeV.147807.PowhegPythia8_AU2CT10_Zmumu.recon.ESD.e1564_s1762_s1777_r6030.v2.trkD3PD_EXT0.29486363/group.det-slhc.5557666.EXT0._000167.D3PD.root
root://eosatlas//eos//atlas/atlascerngroupdisk/det-slhc/SCOPING/group.det-slhc.mc12_14TeV.147807.PowhegPythia8_AU2CT10_Zmumu.recon.ESD.e1564_s1762_s1777_r6030.v2.trkD3PD_EXT0.29486363/group.det-slhc.5557666.EXT0._000168.D3PD.root
root://eosatlas//eos//atlas/atlascerngroupdisk/det-slhc/SCOPING/group.det-slhc.mc12_14TeV.147807.PowhegPythia8_AU2CT10_Zmumu.recon.ESD.e1564_s1762_s1777_r6030.v2.trkD3PD_EXT0.29486363/group.det-slhc.5557666.EXT0._000169.D3PD.root
root://eosatlas//eos//atlas/atlascerngroupdisk/det-slhc/SCOPING/group.det-slhc.mc12_14TeV.147807.PowhegPythia8_AU2CT10_Zmumu.recon.ESD.e1564_s1762_s1777_r6030.v2.trkD3PD_EXT0.29486363/group.det-slhc.5557666.EXT0._000170.D3PD.root
root://eosatlas//eos//atlas/atlascerngroupdisk/det-slhc/SCOPING/group.det-slhc.mc12_14TeV.147807.PowhegPythia8_AU2CT10_Zmumu.recon.ESD.e1564_s1762_s1777_r6030.v2.trkD3PD_EXT0.29486363/group.det-slhc.5557666.EXT0._000171.D3PD.root
root://eosatlas//eos//atlas/atlascerngroupdisk/det-slhc/SCOPING/group.det-slhc.mc12_14TeV.147807.PowhegPythia8_AU2CT10_Zmumu.recon.ESD.e1564_s1762_s1777_r6030.v2.trkD3PD_EXT0.29486363/group.det-slhc.5557666.EXT0._000172.D3PD.root
root://eosatlas//eos//atlas/atlascerngroupdisk/det-slhc/SCOPING/group.det-slhc.mc12_14TeV.147807.PowhegPythia8_AU2CT10_Zmumu.recon.ESD.e1564_s1762_s1777_r6030.v2.trkD3PD_EXT0.29486363/group.det-slhc.5557666.EXT0._000173.D3PD.root
root://eosatlas//eos//atlas/atlascerngroupdisk/det-slhc/SCOPING/group.det-slhc.mc12_14TeV.147807.PowhegPythia8_AU2CT10_Zmumu.recon.ESD.e1564_s1762_s1777_r6030.v2.trkD3PD_EXT0.29486363/group.det-slhc.5557666.EXT0._000174.D3PD.root
root://eosatlas//eos//atlas/atlascerngroupdisk/det-slhc/SCOPING/group.det-slhc.mc12_14TeV.147807.PowhegPythia8_AU2CT10_Zmumu.recon.ESD.e1564_s1762_s1777_r6030.v2.trkD3PD_EXT0.29486363/group.det-slhc.5557666.EXT0._000175.D3PD.root
root://eosatlas//eos//atlas/atlascerngroupdisk/det-slhc/SCOPING/group.det-slhc.mc12_14TeV.147807.PowhegPythia8_AU2CT10_Zmumu.recon.ESD.e1564_s1762_s1777_r6030.v2.trkD3PD_EXT0.29486363/group.det-slhc.5557666.EXT0._000176.D3PD.root
root://eosatlas//eos//atlas/atlascerngroupdisk/det-slhc/SCOPING/group.det-slhc.mc12_14TeV.147807.PowhegPythia8_AU2CT10_Zmumu.recon.ESD.e1564_s1762_s1777_r6030.v2.trkD3PD_EXT0.29486363/group.det-slhc.5557666.EXT0._000177.D3PD.root
root://eosatlas//eos//atlas/atlascerngroupdisk/det-slhc/SCOPING/group.det-slhc.mc12_14TeV.147807.PowhegPythia8_AU2CT10_Zmumu.recon.ESD.e1564_s1762_s1777_r6030.v2.trkD3PD_EXT0.29486363/group.det-slhc.5557666.EXT0._000178.D3PD.root
root://eosatlas//eos//atlas/atlascerngroupdisk/det-slhc/SCOPING/group.det-slhc.mc12_14TeV.147807.PowhegPythia8_AU2CT10_Zmumu.recon.ESD.e1564_s1762_s1777_r6030.v2.trkD3PD_EXT0.29486363/group.det-slhc.5557666.EXT0._000179.D3PD.root
root://eosatlas//eos//atlas/atlascerngroupdisk/det-slhc/SCOPING/group.det-slhc.mc12_14TeV.147807.PowhegPythia8_AU2CT10_Zmumu.recon.ESD.e1564_s1762_s1777_r6030.v2.trkD3PD_EXT0.29486363/group.det-slhc.5557666.EXT0._000180.D3PD.root
root://eosatlas//eos//atlas/atlascerngroupdisk/det-slhc/SCOPING/group.det-slhc.mc12_14TeV.147807.PowhegPythia8_AU2CT10_Zmumu.recon.ESD.e1564_s1762_s1777_r6030.v2.trkD3PD_EXT0.29486363/group.det-slhc.5557666.EXT0._000181.D3PD.root
root://eosatlas//eos//atlas/atlascerngroupdisk/det-slhc/SCOPING/group.det-slhc.mc12_14TeV.147807.PowhegPythia8_AU2CT10_Zmumu.recon.ESD.e1564_s1762_s1777_r6030.v2.trkD3PD_EXT0.29486363/group.det-slhc.5557666.EXT0._000182.D3PD.root
root://eosatlas//eos//atlas/atlascerngroupdisk/det-slhc/SCOPING/group.det-slhc.mc12_14TeV.147807.PowhegPythia8_AU2CT10_Zmumu.recon.ESD.e1564_s1762_s1777_r6030.v2.trkD3PD_EXT0.29486363/group.det-slhc.5557666.EXT0._000183.D3PD.root
root://eosatlas//eos//atlas/atlascerngroupdisk/det-slhc/SCOPING/group.det-slhc.mc12_14TeV.147807.PowhegPythia8_AU2CT10_Zmumu.recon.ESD.e1564_s1762_s1777_r6030.v2.trkD3PD_EXT0.29486363/group.det-slhc.5557666.EXT0._000184.D3PD.root
root://eosatlas//eos//atlas/atlascerngroupdisk/det-slhc/SCOPING/group.det-slhc.mc12_14TeV.147807.PowhegPythia8_AU2CT10_Zmumu.recon.ESD.e1564_s1762_s1777_r6030.v2.trkD3PD_EXT0.29486363/group.det-slhc.5557666.EXT0._000185.D3PD.root
root://eosatlas//eos//atlas/atlascerngroupdisk/det-slhc/SCOPING/group.det-slhc.mc12_14TeV.147807.PowhegPythia8_AU2CT10_Zmumu.recon.ESD.e1564_s1762_s1777_r6030.v2.trkD3PD_EXT0.29486363/group.det-slhc.5557666.EXT0._000186.D3PD.root
root://eosatlas//eos//atlas/atlascerngroupdisk/det-slhc/SCOPING/group.det-slhc.mc12_14TeV.147807.PowhegPythia8_AU2CT10_Zmumu.recon.ESD.e1564_s1762_s1777_r6030.v2.trkD3PD_EXT0.29486363/group.det-slhc.5557666.EXT0._000187.D3PD.root
root://eosatlas//eos//atlas/atlascerngroupdisk/det-slhc/SCOPING/group.det-slhc.mc12_14TeV.147807.PowhegPythia8_AU2CT10_Zmumu.recon.ESD.e1564_s1762_s1777_r6030.v2.trkD3PD_EXT0.29486363/group.det-slhc.5557666.EXT0._000188.D3PD.root
root://eosatlas//eos//atlas/atlascerngroupdisk/det-slhc/SCOPING/group.det-slhc.mc12_14TeV.147807.PowhegPythia8_AU2CT10_Zmumu.recon.ESD.e1564_s1762_s1777_r6030.v2.trkD3PD_EXT0.29486363/group.det-slhc.5557666.EXT0._000189.D3PD.root
root://eosatlas//eos//atlas/atlascerngroupdisk/det-slhc/SCOPING/group.det-slhc.mc12_14TeV.147807.PowhegPythia8_AU2CT10_Zmumu.recon.ESD.e1564_s1762_s1777_r6030.v2.trkD3PD_EXT0.29486363/group.det-slhc.5557666.EXT0._000190.D3PD.root
root://eosatlas//eos//atlas/atlascerngroupdisk/det-slhc/SCOPING/group.det-slhc.mc12_14TeV.147807.PowhegPythia8_AU2CT10_Zmumu.recon.ESD.e1564_s1762_s1777_r6030.v2.trkD3PD_EXT0.29486363/group.det-slhc.5557666.EXT0._000191.D3PD.root
root://eosatlas//eos//atlas/atlascerngroupdisk/det-slhc/SCOPING/group.det-slhc.mc12_14TeV.147807.PowhegPythia8_AU2CT10_Zmumu.recon.ESD.e1564_s1762_s1777_r6030.v2.trkD3PD_EXT0.29486363/group.det-slhc.5557666.EXT0._000192.D3PD.root
root://eosatlas//eos//atlas/atlascerngroupdisk/det-slhc/SCOPING/group.det-slhc.mc12_14TeV.147807.PowhegPythia8_AU2CT10_Zmumu.recon.ESD.e1564_s1762_s1777_r6030.v2.trkD3PD_EXT0.29486363/group.det-slhc.5557666.EXT0._000193.D3PD.root
root://eosatlas//eos//atlas/atlascerngroupdisk/det-slhc/SCOPING/group.det-slhc.mc12_14TeV.147807.PowhegPythia8_AU2CT10_Zmumu.recon.ESD.e1564_s1762_s1777_r6030.v2.trkD3PD_EXT0.29486363/group.det-slhc.5557666.EXT0._000194.D3PD.root
root://eosatlas//eos//atlas/atlascerngroupdisk/det-slhc/SCOPING/group.det-slhc.mc12_14TeV.147807.PowhegPythia8_AU2CT10_Zmumu.recon.ESD.e1564_s1762_s1777_r6030.v2.trkD3PD_EXT0.29486363/group.det-slhc.5557666.EXT0._000195.D3PD.root
root://eosatlas//eos//atlas/atlascerngroupdisk/det-slhc/SCOPING/group.det-slhc.mc12_14TeV.147807.PowhegPythia8_AU2CT10_Zmumu.recon.ESD.e1564_s1762_s1777_r6030.v2.trkD3PD_EXT0.29486363/group.det-slhc.5557666.EXT0._000196.D3PD.root
root://eosatlas//eos//atlas/atlascerngroupdisk/det-slhc/SCOPING/group.det-slhc.mc12_14TeV.147807.PowhegPythia8_AU2CT10_Zmumu.recon.ESD.e1564_s1762_s1777_r6030.v2.trkD3PD_EXT0.29486363/group.det-slhc.5557666.EXT0._000197.D3PD.root
root://eosatlas//eos//atlas/atlascerngroupdisk/det-slhc/SCOPING/group.det-slhc.mc12_14TeV.147807.PowhegPythia8_AU2CT10_Zmumu.recon.ESD.e1564_s1762_s1777_r6030.v2.trkD3PD_EXT0.29486363/group.det-slhc.5557666.EXT0._000198.D3PD.root
root://eosatlas//eos//atlas/atlascerngroupdisk/det-slhc/SCOPING/group.det-slhc.mc12_14TeV.147807.PowhegPythia8_AU2CT10_Zmumu.recon.ESD.e1564_s1762_s1777_r6030.v2.trkD3PD_EXT0.29486363/group.det-slhc.5557666.EXT0._000199.D3PD.root
root://eosatlas//eos//atlas/atlascerngroupdisk/det-slhc/SCOPING/group.det-slhc.mc12_14TeV.147807.PowhegPythia8_AU2CT10_Zmumu.recon.ESD.e1564_s1762_s1777_r6030.v2.trkD3PD_EXT0.29486363/group.det-slhc.5557666.EXT0._000200.D3PD.root
root://eosatlas//eos//atlas/atlascerngroupdisk/det-slhc/SCOPING/group.det-slhc.mc12_14TeV.147807.PowhegPythia8_AU2CT10_Zmumu.recon.ESD.e1564_s1762_s1777_r6030.v2.trkD3PD_EXT0.29489920/group.det-slhc.5557666.EXT0._000036.D3PD.root
root://eosatlas//eos//atlas/atlascerngroupdisk/det-slhc/SCOPING/group.det-slhc.mc12_14TeV.147807.PowhegPythia8_AU2CT10_Zmumu.recon.ESD.e1564_s1762_s1777_r6030.v2.trkD3PD_EXT0.29489920/group.det-slhc.5557666.EXT0._000037.D3PD.root
root://eosatlas//eos//atlas/atlascerngroupdisk/det-slhc/SCOPING/group.det-slhc.mc12_14TeV.147807.PowhegPythia8_AU2CT10_Zmumu.recon.ESD.e1564_s1762_s1777_r6030.v2.trkD3PD_EXT0.29489920/group.det-slhc.5557666.EXT0._000038.D3PD.root
root://eosatlas//eos//atlas/atlascerngroupdisk/det-slhc/SCOPING/group.det-slhc.mc12_14TeV.147807.PowhegPythia8_AU2CT10_Zmumu.recon.ESD.e1564_s1762_s1777_r6030.v2.trkD3PD_EXT0.29489920/group.det-slhc.5557666.EXT0._000039.D3PD.root
root://eosatlas//eos//atlas/atlascerngroupdisk/det-slhc/SCOPING/group.det-slhc.mc12_14TeV.147807.PowhegPythia8_AU2CT10_Zmumu.recon.ESD.e1564_s1762_s1777_r6030.v2.trkD3PD_EXT0.29489920/group.det-slhc.5557666.EXT0._000040.D3PD.root
root://eosatlas//eos//atlas/atlascerngroupdisk/det-slhc/SCOPING/group.det-slhc.mc12_14TeV.147807.PowhegPythia8_AU2CT10_Zmumu.recon.ESD.e1564_s1762_s1777_r6030.v2.trkD3PD_EXT0.29489920/group.det-slhc.5557666.EXT0._000041.D3PD.root
root://eosatlas//eos//atlas/atlascerngroupdisk/det-slhc/SCOPING/group.det-slhc.mc12_14TeV.147807.PowhegPythia8_AU2CT10_Zmumu.recon.ESD.e1564_s1762_s1777_r6030.v2.trkD3PD_EXT0.29489920/group.det-slhc.5557666.EXT0._000042.D3PD.root
root://eosatlas//eos//atlas/atlascerngroupdisk/det-slhc/SCOPING/group.det-slhc.mc12_14TeV.147807.PowhegPythia8_AU2CT10_Zmumu.recon.ESD.e1564_s1762_s1777_r6030.v2.trkD3PD_EXT0.29489920/group.det-slhc.5557666.EXT0._000043.D3PD.root
root://eosatlas//eos//atlas/atlascerngroupdisk/det-slhc/SCOPING/group.det-slhc.mc12_14TeV.147807.PowhegPythia8_AU2CT10_Zmumu.recon.ESD.e1564_s1762_s1777_r6030.v2.trkD3PD_EXT0.29489920/group.det-slhc.5557666.EXT0._000044.D3PD.root
root://eosatlas//eos//atlas/atlascerngroupdisk/det-slhc/SCOPING/group.det-slhc.mc12_14TeV.147807.PowhegPythia8_AU2CT10_Zmumu.recon.ESD.e1564_s1762_s1777_r6030.v2.trkD3PD_EXT0.29489920/group.det-slhc.5557666.EXT0._000045.D3PD.root
root://eosatlas//eos//atlas/atlascerngroupdisk/det-slhc/SCOPING/group.det-slhc.mc12_14TeV.147807.PowhegPythia8_AU2CT10_Zmumu.recon.ESD.e1564_s1762_s1777_r6030.v2.trkD3PD_EXT0.29489920/group.det-slhc.5557666.EXT0._000046.D3PD.root
root://eosatlas//eos//atlas/atlascerngroupdisk/det-slhc/SCOPING/group.det-slhc.mc12_14TeV.147807.PowhegPythia8_AU2CT10_Zmumu.recon.ESD.e1564_s1762_s1777_r6030.v2.trkD3PD_EXT0.29489920/group.det-slhc.5557666.EXT0._000047.D3PD.root
root://eosatlas//eos//atlas/atlascerngroupdisk/det-slhc/SCOPING/group.det-slhc.mc12_14TeV.147807.PowhegPythia8_AU2CT10_Zmumu.recon.ESD.e1564_s1762_s1777_r6030.v2.trkD3PD_EXT0.29489920/group.det-slhc.5557666.EXT0._000048.D3PD.root
root://eosatlas//eos//atlas/atlascerngroupdisk/det-slhc/SCOPING/group.det-slhc.mc12_14TeV.147807.PowhegPythia8_AU2CT10_Zmumu.recon.ESD.e1564_s1762_s1777_r6030.v2.trkD3PD_EXT0.29489920/group.det-slhc.5557666.EXT0._000049.D3PD.root
root://eosatlas//eos//atlas/atlascerngroupdisk/det-slhc/SCOPING/group.det-slhc.mc12_14TeV.147807.PowhegPythia8_AU2CT10_Zmumu.recon.ESD.e1564_s1762_s1777_r6030.v2.trkD3PD_EXT0.29489920/group.det-slhc.5557666.EXT0._000050.D3PD.root
root://eosatlas//eos//atlas/atlascerngroupdisk/det-slhc/SCOPING/group.det-slhc.mc12_14TeV.147807.PowhegPythia8_AU2CT10_Zmumu.recon.ESD.e1564_s1762_s1777_r6030.v2.trkD3PD_EXT0.29489920/group.det-slhc.5557666.EXT0._000051.D3PD.root
root://eosatlas//eos//atlas/atlascerngroupdisk/det-slhc/SCOPING/group.det-slhc.mc12_14TeV.147807.PowhegPythia8_AU2CT10_Zmumu.recon.ESD.e1564_s1762_s1777_r6030.v2.trkD3PD_EXT0.29489920/group.det-slhc.5557666.EXT0._000052.D3PD.root
root://eosatlas//eos//atlas/atlascerngroupdisk/det-slhc/SCOPING/group.det-slhc.mc12_14TeV.147807.PowhegPythia8_AU2CT10_Zmumu.recon.ESD.e1564_s1762_s1777_r6030.v2.trkD3PD_EXT0.29489920/group.det-slhc.5557666.EXT0._000053.D3PD.root
root://eosatlas//eos//atlas/atlascerngroupdisk/det-slhc/SCOPING/group.det-slhc.mc12_14TeV.147807.PowhegPythia8_AU2CT10_Zmumu.recon.ESD.e1564_s1762_s1777_r6030.v2.trkD3PD_EXT0.29489920/group.det-slhc.5557666.EXT0._000054.D3PD.root
root://eosatlas//eos//atlas/atlascerngroupdisk/det-slhc/SCOPING/group.det-slhc.mc12_14TeV.147807.PowhegPythia8_AU2CT10_Zmumu.recon.ESD.e1564_s1762_s1777_r6030.v2.trkD3PD_EXT0.29489920/group.det-slhc.5557666.EXT0._000055.D3PD.root
root://eosatlas//eos//atlas/atlascerngroupdisk/det-slhc/SCOPING/group.det-slhc.mc12_14TeV.147807.PowhegPythia8_AU2CT10_Zmumu.recon.ESD.e1564_s1762_s1777_r6030.v2.trkD3PD_EXT0.29489920/group.det-slhc.5557666.EXT0._000056.D3PD.root
root://eosatlas//eos//atlas/atlascerngroupdisk/det-slhc/SCOPING/group.det-slhc.mc12_14TeV.147807.PowhegPythia8_AU2CT10_Zmumu.recon.ESD.e1564_s1762_s1777_r6030.v2.trkD3PD_EXT0.29489920/group.det-slhc.5557666.EXT0._000057.D3PD.root
root://eosatlas//eos//atlas/atlascerngroupdisk/det-slhc/SCOPING/group.det-slhc.mc12_14TeV.147807.PowhegPythia8_AU2CT10_Zmumu.recon.ESD.e1564_s1762_s1777_r6030.v2.trkD3PD_EXT0.29489920/group.det-slhc.5557666.EXT0._000058.D3PD.root
root://eosatlas//eos//atlas/atlascerngroupdisk/det-slhc/SCOPING/group.det-slhc.mc12_14TeV.147807.PowhegPythia8_AU2CT10_Zmumu.recon.ESD.e1564_s1762_s1777_r6030.v2.trkD3PD_EXT0.29489920/group.det-slhc.5557666.EXT0._000059.D3PD.root
root://eosatlas//eos//atlas/atlascerngroupdisk/det-slhc/SCOPING/group.det-slhc.mc12_14TeV.147807.PowhegPythia8_AU2CT10_Zmumu.recon.ESD.e1564_s1762_s1777_r6030.v2.trkD3PD_EXT0.29489920/group.det-slhc.5557666.EXT0._000085.D3PD.root
root://eosatlas//eos//atlas/atlascerngroupdisk/det-slhc/SCOPING/group.det-slhc.mc12_14TeV.147807.PowhegPythia8_AU2CT10_Zmumu.recon.ESD.e1564_s1762_s1777_r6030.v2.trkD3PD_EXT0.29489920/group.det-slhc.5557666.EXT0._000086.D3PD.root
root://eosatlas//eos//atlas/atlascerngroupdisk/det-slhc/SCOPING/group.det-slhc.mc12_14TeV.147807.PowhegPythia8_AU2CT10_Zmumu.recon.ESD.e1564_s1762_s1777_r6030.v2.trkD3PD_EXT0.29489920/group.det-slhc.5557666.EXT0._000087.D3PD.root
root://eosatlas//eos//atlas/atlascerngroupdisk/det-slhc/SCOPING/group.det-slhc.mc12_14TeV.147807.PowhegPythia8_AU2CT10_Zmumu.recon.ESD.e1564_s1762_s1777_r6030.v2.trkD3PD_EXT0.29489920/group.det-slhc.5557666.EXT0._000088.D3PD.root
root://eosatlas//eos//atlas/atlascerngroupdisk/det-slhc/SCOPING/group.det-slhc.mc12_14TeV.147807.PowhegPythia8_AU2CT10_Zmumu.recon.ESD.e1564_s1762_s1777_r6030.v2.trkD3PD_EXT0.29489920/group.det-slhc.5557666.EXT0._000089.D3PD.root
root://eosatlas//eos//atlas/atlascerngroupdisk/det-slhc/SCOPING/group.det-slhc.mc12_14TeV.147807.PowhegPythia8_AU2CT10_Zmumu.recon.ESD.e1564_s1762_s1777_r6030.v2.trkD3PD_EXT0.29489920/group.det-slhc.5557666.EXT0._000090.D3PD.root
root://eosatlas//eos//atlas/atlascerngroupdisk/det-slhc/SCOPING/group.det-slhc.mc12_14TeV.147807.PowhegPythia8_AU2CT10_Zmumu.recon.ESD.e1564_s1762_s1777_r6030.v2.trkD3PD_EXT0.29489920/group.det-slhc.5557666.EXT0._000091.D3PD.root
root://eosatlas//eos//atlas/atlascerngroupdisk/det-slhc/SCOPING/group.det-slhc.mc12_14TeV.147807.PowhegPythia8_AU2CT10_Zmumu.recon.ESD.e1564_s1762_s1777_r6030.v2.trkD3PD_EXT0.29489920/group.det-slhc.5557666.EXT0._000092.D3PD.root
root://eosatlas//eos//atlas/atlascerngroupdisk/det-slhc/SCOPING/group.det-slhc.mc12_14TeV.147807.PowhegPythia8_AU2CT10_Zmumu.recon.ESD.e1564_s1762_s1777_r6030.v2.trkD3PD_EXT0.29489920/group.det-slhc.5557666.EXT0._000093.D3PD.root
root://eosatlas//eos//atlas/atlascerngroupdisk/det-slhc/SCOPING/group.det-slhc.mc12_14TeV.147807.PowhegPythia8_AU2CT10_Zmumu.recon.ESD.e1564_s1762_s1777_r6030.v2.trkD3PD_EXT0.29489920/group.det-slhc.5557666.EXT0._000094.D3PD.root
root://eosatlas//eos//atlas/atlascerngroupdisk/det-slhc/SCOPING/group.det-slhc.mc12_14TeV.147807.PowhegPythia8_AU2CT10_Zmumu.recon.ESD.e1564_s1762_s1777_r6030.v2.trkD3PD_EXT0.29489920/group.det-slhc.5557666.EXT0._000095.D3PD.root
root://eosatlas//eos//atlas/atlascerngroupdisk/det-slhc/SCOPING/group.det-slhc.mc12_14TeV.147807.PowhegPythia8_AU2CT10_Zmumu.recon.ESD.e1564_s1762_s1777_r6030.v2.trkD3PD_EXT0.29489920/group.det-slhc.5557666.EXT0._000096.D3PD.root
root://eosatlas//eos//atlas/atlascerngroupdisk/det-slhc/SCOPING/group.det-slhc.mc12_14TeV.147807.PowhegPythia8_AU2CT10_Zmumu.recon.ESD.e1564_s1762_s1777_r6030.v2.trkD3PD_EXT0.29489920/group.det-slhc.5557666.EXT0._000097.D3PD.root
root://eosatlas//eos//atlas/atlascerngroupdisk/det-slhc/SCOPING/group.det-slhc.mc12_14TeV.147807.PowhegPythia8_AU2CT10_Zmumu.recon.ESD.e1564_s1762_s1777_r6030.v2.trkD3PD_EXT0.29489920/group.det-slhc.5557666.EXT0._000098.D3PD.root
root://eosatlas//eos//atlas/atlascerngroupdisk/det-slhc/SCOPING/group.det-slhc.mc12_14TeV.147807.PowhegPythia8_AU2CT10_Zmumu.recon.ESD.e1564_s1762_s1777_r6030.v2.trkD3PD_EXT0.29489920/group.det-slhc.5557666.EXT0._000099.D3PD.root
root://eosatlas//eos//atlas/atlascerngroupdisk/det-slhc/SCOPING/group.det-slhc.mc12_14TeV.147807.PowhegPythia8_AU2CT10_Zmumu.recon.ESD.e1564_s1762_s1777_r6030.v2.trkD3PD_EXT0.29489920/group.det-slhc.5557666.EXT0._000100.D3PD.root
root://eosatlas//eos//atlas/atlascerngroupdisk/det-slhc/SCOPING/group.det-slhc.mc12_14TeV.147807.PowhegPythia8_AU2CT10_Zmumu.recon.ESD.e1564_s1762_s1777_r6030.v2.trkD3PD_EXT0.29489920/group.det-slhc.5557666.EXT0._000101.D3PD.root
root://eosatlas//eos//atlas/atlascerngroupdisk/det-slhc/SCOPING/group.det-slhc.mc12_14TeV.147807.PowhegPythia8_AU2CT10_Zmumu.recon.ESD.e1564_s1762_s1777_r6030.v2.trkD3PD_EXT0.29489920/group.det-slhc.5557666.EXT0._000102.D3PD.root
root://eosatlas//eos//atlas/atlascerngroupdisk/det-slhc/SCOPING/group.det-slhc.mc12_14TeV.147807.PowhegPythia8_AU2CT10_Zmumu.recon.ESD.e1564_s1762_s1777_r6030.v2.trkD3PD_EXT0.29489920/group.det-slhc.5557666.EXT0._000103.D3PD.root
root://eosatlas//eos//atlas/atlascerngroupdisk/det-slhc/SCOPING/group.det-slhc.mc12_14TeV.147807.PowhegPythia8_AU2CT10_Zmumu.recon.ESD.e1564_s1762_s1777_r6030.v2.trkD3PD_EXT0.29489920/group.det-slhc.5557666.EXT0._000104.D3PD.root
root://eosatlas//eos//atlas/atlascerngroupdisk/det-slhc/SCOPING/group.det-slhc.mc12_14TeV.147807.PowhegPythia8_AU2CT10_Zmumu.recon.ESD.e1564_s1762_s1777_r6030.v2.trkD3PD_EXT0.29489920/group.det-slhc.5557666.EXT0._000105.D3PD.root
root://eosatlas//eos//atlas/atlascerngroupdisk/det-slhc/SCOPING/group.det-slhc.mc12_14TeV.147807.PowhegPythia8_AU2CT10_Zmumu.recon.ESD.e1564_s1762_s1777_r6030.v2.trkD3PD_EXT0.29489920/group.det-slhc.5557666.EXT0._000106.D3PD.root
root://eosatlas//eos//atlas/atlascerngroupdisk/det-slhc/SCOPING/group.det-slhc.mc12_14TeV.147807.PowhegPythia8_AU2CT10_Zmumu.recon.ESD.e1564_s1762_s1777_r6030.v2.trkD3PD_EXT0.29489920/group.det-slhc.5557666.EXT0._000107.D3PD.root
root://eosatlas//eos//atlas/atlascerngroupdisk/det-slhc/SCOPING/group.det-slhc.mc12_14TeV.147807.PowhegPythia8_AU2CT10_Zmumu.recon.ESD.e1564_s1762_s1777_r6030.v2.trkD3PD_EXT0.29489920/group.det-slhc.5557666.EXT0._000108.D3PD.root
root://eosatlas//eos//atlas/atlascerngroupdisk/det-slhc/SCOPING/group.det-slhc.mc12_14TeV.147807.PowhegPythia8_AU2CT10_Zmumu.recon.ESD.e1564_s1762_s1777_r6030.v2.trkD3PD_EXT0.29489920/group.det-slhc.5557666.EXT0._000109.D3PD.root
root://eosatlas//eos//atlas/atlascerngroupdisk/det-slhc/SCOPING/group.det-slhc.mc12_14TeV.147807.PowhegPythia8_AU2CT10_Zmumu.recon.ESD.e1564_s1762_s1777_r6030.v2.trkD3PD_EXT0.29489920/group.det-slhc.5557666.EXT0._000110.D3PD.root
root://eosatlas//eos//atlas/atlascerngroupdisk/det-slhc/SCOPING/group.det-slhc.mc12_14TeV.147807.PowhegPythia8_AU2CT10_Zmumu.recon.ESD.e1564_s1762_s1777_r6030.v2.trkD3PD_EXT0.29489920/group.det-slhc.5557666.EXT0._000111.D3PD.root
root://eosatlas//eos//atlas/atlascerngroupdisk/det-slhc/SCOPING/group.det-slhc.mc12_14TeV.147807.PowhegPythia8_AU2CT10_Zmumu.recon.ESD.e1564_s1762_s1777_r6030.v2.trkD3PD_EXT0.29489920/group.det-slhc.5557666.EXT0._000112.D3PD.root
root://eosatlas//eos//atlas/atlascerngroupdisk/det-slhc/SCOPING/group.det-slhc.mc12_14TeV.147807.PowhegPythia8_AU2CT10_Zmumu.recon.ESD.e1564_s1762_s1777_r6030.v2.trkD3PD_EXT0.29489920/group.det-slhc.5557666.EXT0._000113.D3PD.root
root://eosatlas//eos//atlas/atlascerngroupdisk/det-slhc/SCOPING/group.det-slhc.mc12_14TeV.147807.PowhegPythia8_AU2CT10_Zmumu.recon.ESD.e1564_s1762_s1777_r6030.v2.trkD3PD_EXT0.29489920/group.det-slhc.5557666.EXT0._000114.D3PD.root
root://eosatlas//eos//atlas/atlascerngroupdisk/det-slhc/SCOPING/group.det-slhc.mc12_14TeV.147807.PowhegPythia8_AU2CT10_Zmumu.recon.ESD.e1564_s1762_s1777_r6030.v2.trkD3PD_EXT0.29489920/group.det-slhc.5557666.EXT0._000115.D3PD.root
root://eosatlas//eos//atlas/atlascerngroupdisk/det-slhc/SCOPING/group.det-slhc.mc12_14TeV.147807.PowhegPythia8_AU2CT10_Zmumu.recon.ESD.e1564_s1762_s1777_r6030.v2.trkD3PD_EXT0.29489920/group.det-slhc.5557666.EXT0._000116.D3PD.root
root://eosatlas//eos//atlas/atlascerngroupdisk/det-slhc/SCOPING/group.det-slhc.mc12_14TeV.147807.PowhegPythia8_AU2CT10_Zmumu.recon.ESD.e1564_s1762_s1777_r6030.v2.trkD3PD_EXT0.29489920/group.det-slhc.5557666.EXT0._000117.D3PD.root
root://eosatlas//eos//atlas/atlascerngroupdisk/det-slhc/SCOPING/group.det-slhc.mc12_14TeV.147807.PowhegPythia8_AU2CT10_Zmumu.recon.ESD.e1564_s1762_s1777_r6030.v2.trkD3PD_EXT0.29489920/group.det-slhc.5557666.EXT0._000118.D3PD.root
root://eosatlas//eos//atlas/atlascerngroupdisk/det-slhc/SCOPING/group.det-slhc.mc12_14TeV.147807.PowhegPythia8_AU2CT10_Zmumu.recon.ESD.e1564_s1762_s1777_r6030.v2.trkD3PD_EXT0.29489920/group.det-slhc.5557666.EXT0._000119.D3PD.root
root://eosatlas//eos//atlas/atlascerngroupdisk/det-slhc/SCOPING/group.det-slhc.mc12_14TeV.147807.PowhegPythia8_AU2CT10_Zmumu.recon.ESD.e1564_s1762_s1777_r6030.v2.trkD3PD_EXT0.29489920/group.det-slhc.5557666.EXT0._000120.D3PD.root
root://eosatlas//eos//atlas/atlascerngroupdisk/det-slhc/SCOPING/group.det-slhc.mc12_14TeV.147807.PowhegPythia8_AU2CT10_Zmumu.recon.ESD.e1564_s1762_s1777_r6030.v2.trkD3PD_EXT0.29489920/group.det-slhc.5557666.EXT0._000121.D3PD.root
root://eosatlas//eos//atlas/atlascerngroupdisk/det-slhc/SCOPING/group.det-slhc.mc12_14TeV.147807.PowhegPythia8_AU2CT10_Zmumu.recon.ESD.e1564_s1762_s1777_r6030.v2.trkD3PD_EXT0.29489920/group.det-slhc.5557666.EXT0._000122.D3PD.root
root://eosatlas//eos//atlas/atlascerngroupdisk/det-slhc/SCOPING/group.det-slhc.mc12_14TeV.147807.PowhegPythia8_AU2CT10_Zmumu.recon.ESD.e1564_s1762_s1777_r6030.v2.trkD3PD_EXT0.29489920/group.det-slhc.5557666.EXT0._000123.D3PD.root
root://eosatlas//eos//atlas/atlascerngroupdisk/det-slhc/SCOPING/group.det-slhc.mc12_14TeV.147807.PowhegPythia8_AU2CT10_Zmumu.recon.ESD.e1564_s1762_s1777_r6030.v2.trkD3PD_EXT0.29489920/group.det-slhc.5557666.EXT0._000124.D3PD.root
root://eosatlas//eos//atlas/atlascerngroupdisk/det-slhc/SCOPING/group.det-slhc.mc12_14TeV.147807.PowhegPythia8_AU2CT10_Zmumu.recon.ESD.e1564_s1762_s1777_r6030.v2.trkD3PD_EXT0.29489920/group.det-slhc.5557666.EXT0._000125.D3PD.root
root://eosatlas//eos//atlas/atlascerngroupdisk/det-slhc/SCOPING/group.det-slhc.mc12_14TeV.147807.PowhegPythia8_AU2CT10_Zmumu.recon.ESD.e1564_s1762_s1777_r6030.v2.trkD3PD_EXT0.29489920/group.det-slhc.5557666.EXT0._000126.D3PD.root
root://eosatlas//eos//atlas/atlascerngroupdisk/det-slhc/SCOPING/group.det-slhc.mc12_14TeV.147807.PowhegPythia8_AU2CT10_Zmumu.recon.ESD.e1564_s1762_s1777_r6030.v2.trkD3PD_EXT0.29489920/group.det-slhc.5557666.EXT0._000127.D3PD.root
root://eosatlas//eos//atlas/atlascerngroupdisk/det-slhc/SCOPING/group.det-slhc.mc12_14TeV.147807.PowhegPythia8_AU2CT10_Zmumu.recon.ESD.e1564_s1762_s1777_r6030.v2.trkD3PD_EXT0.29489920/group.det-slhc.5557666.EXT0._000128.D3PD.root
root://eosatlas//eos//atlas/atlascerngroupdisk/det-slhc/SCOPING/group.det-slhc.mc12_14TeV.147807.PowhegPythia8_AU2CT10_Zmumu.recon.ESD.e1564_s1762_s1777_r6030.v2.trkD3PD_EXT0.29489920/group.det-slhc.5557666.EXT0._000129.D3PD.root
root://eosatlas//eos//atlas/atlascerngroupdisk/det-slhc/SCOPING/group.det-slhc.mc12_14TeV.147807.PowhegPythia8_AU2CT10_Zmumu.recon.ESD.e1564_s1762_s1777_r6030.v2.trkD3PD_EXT0.29489920/group.det-slhc.5557666.EXT0._000130.D3PD.root
root://eosatlas//eos//atlas/atlascerngroupdisk/det-slhc/SCOPING/group.det-slhc.mc12_14TeV.147807.PowhegPythia8_AU2CT10_Zmumu.recon.ESD.e1564_s1762_s1777_r6030.v2.trkD3PD_EXT0.29489920/group.det-slhc.5557666.EXT0._000131.D3PD.root
root://eosatlas//eos//atlas/atlascerngroupdisk/det-slhc/SCOPING/group.det-slhc.mc12_14TeV.147807.PowhegPythia8_AU2CT10_Zmumu.recon.ESD.e1564_s1762_s1777_r6030.v2.trkD3PD_EXT0.29489920/group.det-slhc.5557666.EXT0._000132.D3PD.root
root://eosatlas//eos//atlas/atlascerngroupdisk/det-slhc/SCOPING/group.det-slhc.mc12_14TeV.147807.PowhegPythia8_AU2CT10_Zmumu.recon.ESD.e1564_s1762_s1777_r6030.v2.trkD3PD_EXT0.29489920/group.det-slhc.5557666.EXT0._000133.D3PD.root
